(['C:\\Users\\quinlin.riggs\\source\\repos\\product_crypt\\product_crypt\\src\\gui.py'],
 ['C:\\Users\\quinlin.riggs\\source\\repos\\product_crypt\\product_crypt\\src',
  'C:\\Users\\quinlin.riggs\\source\\repos\\product_crypt\\product_crypt'],
 ['codecs'],
 [],
 [],
 [],
 False,
 False,
 '3.7.4 (tags/v3.7.4:e09359112e, Jul  8 2019, 20:34:20) [MSC v.1916 64 bit '
 '(AMD64)]',
 [('pyi_rth_pyqt5',
   'c:\\users\\quinlin.riggs\\source\\repos\\install_env\\lib\\site-packages\\PyInstaller\\loader\\rthooks\\pyi_rth_pyqt5.py',
   'PYSOURCE'),
  ('gui',
   'C:\\Users\\quinlin.riggs\\source\\repos\\product_crypt\\product_crypt\\src\\gui.py',
   'PYSOURCE')],
 [('ntpath',
   'C:\\Program Files (x86)\\Microsoft Visual '
   'Studio\\Shared\\Python37_64\\lib\\ntpath.py',
   'PYMODULE'),
  ('_strptime',
   'C:\\Program Files (x86)\\Microsoft Visual '
   'Studio\\Shared\\Python37_64\\lib\\_strptime.py',
   'PYMODULE'),
  ('datetime',
   'C:\\Program Files (x86)\\Microsoft Visual '
   'Studio\\Shared\\Python37_64\\lib\\datetime.py',
   'PYMODULE'),
  ('_py_abc',
   'C:\\Program Files (x86)\\Microsoft Visual '
   'Studio\\Shared\\Python37_64\\lib\\_py_abc.py',
   'PYMODULE'),
  ('typing',
   'C:\\Program Files (x86)\\Microsoft Visual '
   'Studio\\Shared\\Python37_64\\lib\\typing.py',
   'PYMODULE'),
  ('stringprep',
   'C:\\Program Files (x86)\\Microsoft Visual '
   'Studio\\Shared\\Python37_64\\lib\\stringprep.py',
   'PYMODULE'),
  ('fnmatch',
   'C:\\Program Files (x86)\\Microsoft Visual '
   'Studio\\Shared\\Python37_64\\lib\\fnmatch.py',
   'PYMODULE'),
  ('struct',
   'C:\\Program Files (x86)\\Microsoft Visual '
   'Studio\\Shared\\Python37_64\\lib\\struct.py',
   'PYMODULE'),
  ('_compat_pickle',
   'C:\\Program Files (x86)\\Microsoft Visual '
   'Studio\\Shared\\Python37_64\\lib\\_compat_pickle.py',
   'PYMODULE'),
  ('__future__',
   'C:\\Program Files (x86)\\Microsoft Visual '
   'Studio\\Shared\\Python37_64\\lib\\__future__.py',
   'PYMODULE'),
  ('difflib',
   'C:\\Program Files (x86)\\Microsoft Visual '
   'Studio\\Shared\\Python37_64\\lib\\difflib.py',
   'PYMODULE'),
  ('ast',
   'C:\\Program Files (x86)\\Microsoft Visual '
   'Studio\\Shared\\Python37_64\\lib\\ast.py',
   'PYMODULE'),
  ('inspect',
   'C:\\Program Files (x86)\\Microsoft Visual '
   'Studio\\Shared\\Python37_64\\lib\\inspect.py',
   'PYMODULE'),
  ('cmd',
   'C:\\Program Files (x86)\\Microsoft Visual '
   'Studio\\Shared\\Python37_64\\lib\\cmd.py',
   'PYMODULE'),
  ('bdb',
   'C:\\Program Files (x86)\\Microsoft Visual '
   'Studio\\Shared\\Python37_64\\lib\\bdb.py',
   'PYMODULE'),
  ('opcode',
   'C:\\Program Files (x86)\\Microsoft Visual '
   'Studio\\Shared\\Python37_64\\lib\\opcode.py',
   'PYMODULE'),
  ('dis',
   'C:\\Program Files (x86)\\Microsoft Visual '
   'Studio\\Shared\\Python37_64\\lib\\dis.py',
   'PYMODULE'),
  ('codeop',
   'C:\\Program Files (x86)\\Microsoft Visual '
   'Studio\\Shared\\Python37_64\\lib\\codeop.py',
   'PYMODULE'),
  ('code',
   'C:\\Program Files (x86)\\Microsoft Visual '
   'Studio\\Shared\\Python37_64\\lib\\code.py',
   'PYMODULE'),
  ('glob',
   'C:\\Program Files (x86)\\Microsoft Visual '
   'Studio\\Shared\\Python37_64\\lib\\glob.py',
   'PYMODULE'),
  ('shlex',
   'C:\\Program Files (x86)\\Microsoft Visual '
   'Studio\\Shared\\Python37_64\\lib\\shlex.py',
   'PYMODULE'),
  ('runpy',
   'C:\\Program Files (x86)\\Microsoft Visual '
   'Studio\\Shared\\Python37_64\\lib\\runpy.py',
   'PYMODULE'),
  ('importlib._bootstrap',
   'C:\\Program Files (x86)\\Microsoft Visual '
   'Studio\\Shared\\Python37_64\\lib\\importlib\\_bootstrap.py',
   'PYMODULE'),
  ('importlib._bootstrap_external',
   'C:\\Program Files (x86)\\Microsoft Visual '
   'Studio\\Shared\\Python37_64\\lib\\importlib\\_bootstrap_external.py',
   'PYMODULE'),
  ('importlib.machinery',
   'C:\\Program Files (x86)\\Microsoft Visual '
   'Studio\\Shared\\Python37_64\\lib\\importlib\\machinery.py',
   'PYMODULE'),
  ('importlib.util',
   'C:\\Program Files (x86)\\Microsoft Visual '
   'Studio\\Shared\\Python37_64\\lib\\importlib\\util.py',
   'PYMODULE'),
  ('importlib.abc',
   'C:\\Program Files (x86)\\Microsoft Visual '
   'Studio\\Shared\\Python37_64\\lib\\importlib\\abc.py',
   'PYMODULE'),
  ('importlib',
   'C:\\Program Files (x86)\\Microsoft Visual '
   'Studio\\Shared\\Python37_64\\lib\\importlib\\__init__.py',
   'PYMODULE'),
  ('pkgutil',
   'C:\\Program Files (x86)\\Microsoft Visual '
   'Studio\\Shared\\Python37_64\\lib\\pkgutil.py',
   'PYMODULE'),
  ('xml',
   'C:\\Program Files (x86)\\Microsoft Visual '
   'Studio\\Shared\\Python37_64\\lib\\xml\\__init__.py',
   'PYMODULE'),
  ('xml.sax.expatreader',
   'C:\\Program Files (x86)\\Microsoft Visual '
   'Studio\\Shared\\Python37_64\\lib\\xml\\sax\\expatreader.py',
   'PYMODULE'),
  ('xml.sax.saxutils',
   'C:\\Program Files (x86)\\Microsoft Visual '
   'Studio\\Shared\\Python37_64\\lib\\xml\\sax\\saxutils.py',
   'PYMODULE'),
  ('urllib.request',
   'C:\\Program Files (x86)\\Microsoft Visual '
   'Studio\\Shared\\Python37_64\\lib\\urllib\\request.py',
   'PYMODULE'),
  ('getpass',
   'C:\\Program Files (x86)\\Microsoft Visual '
   'Studio\\Shared\\Python37_64\\lib\\getpass.py',
   'PYMODULE'),
  ('nturl2path',
   'C:\\Program Files (x86)\\Microsoft Visual '
   'Studio\\Shared\\Python37_64\\lib\\nturl2path.py',
   'PYMODULE'),
  ('ftplib',
   'C:\\Program Files (x86)\\Microsoft Visual '
   'Studio\\Shared\\Python37_64\\lib\\ftplib.py',
   'PYMODULE'),
  ('netrc',
   'C:\\Program Files (x86)\\Microsoft Visual '
   'Studio\\Shared\\Python37_64\\lib\\netrc.py',
   'PYMODULE'),
  ('http.cookiejar',
   'C:\\Program Files (x86)\\Microsoft Visual '
   'Studio\\Shared\\Python37_64\\lib\\http\\cookiejar.py',
   'PYMODULE'),
  ('urllib.response',
   'C:\\Program Files (x86)\\Microsoft Visual '
   'Studio\\Shared\\Python37_64\\lib\\urllib\\response.py',
   'PYMODULE'),
  ('urllib.error',
   'C:\\Program Files (x86)\\Microsoft Visual '
   'Studio\\Shared\\Python37_64\\lib\\urllib\\error.py',
   'PYMODULE'),
  ('xml.sax',
   'C:\\Program Files (x86)\\Microsoft Visual '
   'Studio\\Shared\\Python37_64\\lib\\xml\\sax\\__init__.py',
   'PYMODULE'),
  ('xml.sax.handler',
   'C:\\Program Files (x86)\\Microsoft Visual '
   'Studio\\Shared\\Python37_64\\lib\\xml\\sax\\handler.py',
   'PYMODULE'),
  ('xml.sax._exceptions',
   'C:\\Program Files (x86)\\Microsoft Visual '
   'Studio\\Shared\\Python37_64\\lib\\xml\\sax\\_exceptions.py',
   'PYMODULE'),
  ('xml.sax.xmlreader',
   'C:\\Program Files (x86)\\Microsoft Visual '
   'Studio\\Shared\\Python37_64\\lib\\xml\\sax\\xmlreader.py',
   'PYMODULE'),
  ('xml.parsers',
   'C:\\Program Files (x86)\\Microsoft Visual '
   'Studio\\Shared\\Python37_64\\lib\\xml\\parsers\\__init__.py',
   'PYMODULE'),
  ('xml.parsers.expat',
   'C:\\Program Files (x86)\\Microsoft Visual '
   'Studio\\Shared\\Python37_64\\lib\\xml\\parsers\\expat.py',
   'PYMODULE'),
  ('plistlib',
   'C:\\Program Files (x86)\\Microsoft Visual '
   'Studio\\Shared\\Python37_64\\lib\\plistlib.py',
   'PYMODULE'),
  ('platform',
   'C:\\Program Files (x86)\\Microsoft Visual '
   'Studio\\Shared\\Python37_64\\lib\\platform.py',
   'PYMODULE'),
  ('token',
   'C:\\Program Files (x86)\\Microsoft Visual '
   'Studio\\Shared\\Python37_64\\lib\\token.py',
   'PYMODULE'),
  ('tokenize',
   'C:\\Program Files (x86)\\Microsoft Visual '
   'Studio\\Shared\\Python37_64\\lib\\tokenize.py',
   'PYMODULE'),
  ('urllib.parse',
   'C:\\Program Files (x86)\\Microsoft Visual '
   'Studio\\Shared\\Python37_64\\lib\\urllib\\parse.py',
   'PYMODULE'),
  ('tempfile',
   'C:\\Program Files (x86)\\Microsoft Visual '
   'Studio\\Shared\\Python37_64\\lib\\tempfile.py',
   'PYMODULE'),
  ('tty',
   'C:\\Program Files (x86)\\Microsoft Visual '
   'Studio\\Shared\\Python37_64\\lib\\tty.py',
   'PYMODULE'),
  ('pydoc_data',
   'C:\\Program Files (x86)\\Microsoft Visual '
   'Studio\\Shared\\Python37_64\\lib\\pydoc_data\\__init__.py',
   'PYMODULE'),
  ('pydoc_data.topics',
   'C:\\Program Files (x86)\\Microsoft Visual '
   'Studio\\Shared\\Python37_64\\lib\\pydoc_data\\topics.py',
   'PYMODULE'),
  ('html.entities',
   'C:\\Program Files (x86)\\Microsoft Visual '
   'Studio\\Shared\\Python37_64\\lib\\html\\entities.py',
   'PYMODULE'),
  ('html',
   'C:\\Program Files (x86)\\Microsoft Visual '
   'Studio\\Shared\\Python37_64\\lib\\html\\__init__.py',
   'PYMODULE'),
  ('ssl',
   'C:\\Program Files (x86)\\Microsoft Visual '
   'Studio\\Shared\\Python37_64\\lib\\ssl.py',
   'PYMODULE'),
  ('http.client',
   'C:\\Program Files (x86)\\Microsoft Visual '
   'Studio\\Shared\\Python37_64\\lib\\http\\client.py',
   'PYMODULE'),
  ('mimetypes',
   'C:\\Program Files (x86)\\Microsoft Visual '
   'Studio\\Shared\\Python37_64\\lib\\mimetypes.py',
   'PYMODULE'),
  ('socketserver',
   'C:\\Program Files (x86)\\Microsoft Visual '
   'Studio\\Shared\\Python37_64\\lib\\socketserver.py',
   'PYMODULE'),
  ('http',
   'C:\\Program Files (x86)\\Microsoft Visual '
   'Studio\\Shared\\Python37_64\\lib\\http\\__init__.py',
   'PYMODULE'),
  ('http.server',
   'C:\\Program Files (x86)\\Microsoft Visual '
   'Studio\\Shared\\Python37_64\\lib\\http\\server.py',
   'PYMODULE'),
  ('optparse',
   'C:\\Program Files (x86)\\Microsoft Visual '
   'Studio\\Shared\\Python37_64\\lib\\optparse.py',
   'PYMODULE'),
  ('uu',
   'C:\\Program Files (x86)\\Microsoft Visual '
   'Studio\\Shared\\Python37_64\\lib\\uu.py',
   'PYMODULE'),
  ('quopri',
   'C:\\Program Files (x86)\\Microsoft Visual '
   'Studio\\Shared\\Python37_64\\lib\\quopri.py',
   'PYMODULE'),
  ('email.feedparser',
   'C:\\Program Files (x86)\\Microsoft Visual '
   'Studio\\Shared\\Python37_64\\lib\\email\\feedparser.py',
   'PYMODULE'),
  ('email.parser',
   'C:\\Program Files (x86)\\Microsoft Visual '
   'Studio\\Shared\\Python37_64\\lib\\email\\parser.py',
   'PYMODULE'),
  ('email',
   'C:\\Program Files (x86)\\Microsoft Visual '
   'Studio\\Shared\\Python37_64\\lib\\email\\__init__.py',
   'PYMODULE'),
  ('calendar',
   'C:\\Program Files (x86)\\Microsoft Visual '
   'Studio\\Shared\\Python37_64\\lib\\calendar.py',
   'PYMODULE'),
  ('email._parseaddr',
   'C:\\Program Files (x86)\\Microsoft Visual '
   'Studio\\Shared\\Python37_64\\lib\\email\\_parseaddr.py',
   'PYMODULE'),
  ('email.utils',
   'C:\\Program Files (x86)\\Microsoft Visual '
   'Studio\\Shared\\Python37_64\\lib\\email\\utils.py',
   'PYMODULE'),
  ('email.errors',
   'C:\\Program Files (x86)\\Microsoft Visual '
   'Studio\\Shared\\Python37_64\\lib\\email\\errors.py',
   'PYMODULE'),
  ('email.header',
   'C:\\Program Files (x86)\\Microsoft Visual '
   'Studio\\Shared\\Python37_64\\lib\\email\\header.py',
   'PYMODULE'),
  ('email._policybase',
   'C:\\Program Files (x86)\\Microsoft Visual '
   'Studio\\Shared\\Python37_64\\lib\\email\\_policybase.py',
   'PYMODULE'),
  ('email.base64mime',
   'C:\\Program Files (x86)\\Microsoft Visual '
   'Studio\\Shared\\Python37_64\\lib\\email\\base64mime.py',
   'PYMODULE'),
  ('email.encoders',
   'C:\\Program Files (x86)\\Microsoft Visual '
   'Studio\\Shared\\Python37_64\\lib\\email\\encoders.py',
   'PYMODULE'),
  ('email.charset',
   'C:\\Program Files (x86)\\Microsoft Visual '
   'Studio\\Shared\\Python37_64\\lib\\email\\charset.py',
   'PYMODULE'),
  ('base64',
   'C:\\Program Files (x86)\\Microsoft Visual '
   'Studio\\Shared\\Python37_64\\lib\\base64.py',
   'PYMODULE'),
  ('email._encoded_words',
   'C:\\Program Files (x86)\\Microsoft Visual '
   'Studio\\Shared\\Python37_64\\lib\\email\\_encoded_words.py',
   'PYMODULE'),
  ('hashlib',
   'C:\\Program Files (x86)\\Microsoft Visual '
   'Studio\\Shared\\Python37_64\\lib\\hashlib.py',
   'PYMODULE'),
  ('bisect',
   'C:\\Program Files (x86)\\Microsoft Visual '
   'Studio\\Shared\\Python37_64\\lib\\bisect.py',
   'PYMODULE'),
  ('random',
   'C:\\Program Files (x86)\\Microsoft Visual '
   'Studio\\Shared\\Python37_64\\lib\\random.py',
   'PYMODULE'),
  ('email.generator',
   'C:\\Program Files (x86)\\Microsoft Visual '
   'Studio\\Shared\\Python37_64\\lib\\email\\generator.py',
   'PYMODULE'),
  ('email.iterators',
   'C:\\Program Files (x86)\\Microsoft Visual '
   'Studio\\Shared\\Python37_64\\lib\\email\\iterators.py',
   'PYMODULE'),
  ('urllib',
   'C:\\Program Files (x86)\\Microsoft Visual '
   'Studio\\Shared\\Python37_64\\lib\\urllib\\__init__.py',
   'PYMODULE'),
  ('email._header_value_parser',
   'C:\\Program Files (x86)\\Microsoft Visual '
   'Studio\\Shared\\Python37_64\\lib\\email\\_header_value_parser.py',
   'PYMODULE'),
  ('email.headerregistry',
   'C:\\Program Files (x86)\\Microsoft Visual '
   'Studio\\Shared\\Python37_64\\lib\\email\\headerregistry.py',
   'PYMODULE'),
  ('email.quoprimime',
   'C:\\Program Files (x86)\\Microsoft Visual '
   'Studio\\Shared\\Python37_64\\lib\\email\\quoprimime.py',
   'PYMODULE'),
  ('email.contentmanager',
   'C:\\Program Files (x86)\\Microsoft Visual '
   'Studio\\Shared\\Python37_64\\lib\\email\\contentmanager.py',
   'PYMODULE'),
  ('email.policy',
   'C:\\Program Files (x86)\\Microsoft Visual '
   'Studio\\Shared\\Python37_64\\lib\\email\\policy.py',
   'PYMODULE'),
  ('email.message',
   'C:\\Program Files (x86)\\Microsoft Visual '
   'Studio\\Shared\\Python37_64\\lib\\email\\message.py',
   'PYMODULE'),
  ('bz2',
   'C:\\Program Files (x86)\\Microsoft Visual '
   'Studio\\Shared\\Python37_64\\lib\\bz2.py',
   'PYMODULE'),
  ('lzma',
   'C:\\Program Files (x86)\\Microsoft Visual '
   'Studio\\Shared\\Python37_64\\lib\\lzma.py',
   'PYMODULE'),
  ('_compression',
   'C:\\Program Files (x86)\\Microsoft Visual '
   'Studio\\Shared\\Python37_64\\lib\\_compression.py',
   'PYMODULE'),
  ('gzip',
   'C:\\Program Files (x86)\\Microsoft Visual '
   'Studio\\Shared\\Python37_64\\lib\\gzip.py',
   'PYMODULE'),
  ('tarfile',
   'C:\\Program Files (x86)\\Microsoft Visual '
   'Studio\\Shared\\Python37_64\\lib\\tarfile.py',
   'PYMODULE'),
  ('py_compile',
   'C:\\Program Files (x86)\\Microsoft Visual '
   'Studio\\Shared\\Python37_64\\lib\\py_compile.py',
   'PYMODULE'),
  ('zipfile',
   'C:\\Program Files (x86)\\Microsoft Visual '
   'Studio\\Shared\\Python37_64\\lib\\zipfile.py',
   'PYMODULE'),
  ('shutil',
   'C:\\Program Files (x86)\\Microsoft Visual '
   'Studio\\Shared\\Python37_64\\lib\\shutil.py',
   'PYMODULE'),
  ('socket',
   'C:\\Program Files (x86)\\Microsoft Visual '
   'Studio\\Shared\\Python37_64\\lib\\socket.py',
   'PYMODULE'),
  ('webbrowser',
   'C:\\Program Files (x86)\\Microsoft Visual '
   'Studio\\Shared\\Python37_64\\lib\\webbrowser.py',
   'PYMODULE'),
  ('pydoc',
   'C:\\Program Files (x86)\\Microsoft Visual '
   'Studio\\Shared\\Python37_64\\lib\\pydoc.py',
   'PYMODULE'),
  ('getopt',
   'C:\\Program Files (x86)\\Microsoft Visual '
   'Studio\\Shared\\Python37_64\\lib\\getopt.py',
   'PYMODULE'),
  ('pdb',
   'C:\\Program Files (x86)\\Microsoft Visual '
   'Studio\\Shared\\Python37_64\\lib\\pdb.py',
   'PYMODULE'),
  ('unittest.util',
   'C:\\Program Files (x86)\\Microsoft Visual '
   'Studio\\Shared\\Python37_64\\lib\\unittest\\util.py',
   'PYMODULE'),
  ('unittest.result',
   'C:\\Program Files (x86)\\Microsoft Visual '
   'Studio\\Shared\\Python37_64\\lib\\unittest\\result.py',
   'PYMODULE'),
  ('string',
   'C:\\Program Files (x86)\\Microsoft Visual '
   'Studio\\Shared\\Python37_64\\lib\\string.py',
   'PYMODULE'),
  ('logging',
   'C:\\Program Files (x86)\\Microsoft Visual '
   'Studio\\Shared\\Python37_64\\lib\\logging\\__init__.py',
   'PYMODULE'),
  ('unittest.case',
   'C:\\Program Files (x86)\\Microsoft Visual '
   'Studio\\Shared\\Python37_64\\lib\\unittest\\case.py',
   'PYMODULE'),
  ('unittest.suite',
   'C:\\Program Files (x86)\\Microsoft Visual '
   'Studio\\Shared\\Python37_64\\lib\\unittest\\suite.py',
   'PYMODULE'),
  ('unittest.loader',
   'C:\\Program Files (x86)\\Microsoft Visual '
   'Studio\\Shared\\Python37_64\\lib\\unittest\\loader.py',
   'PYMODULE'),
  ('unittest.runner',
   'C:\\Program Files (x86)\\Microsoft Visual '
   'Studio\\Shared\\Python37_64\\lib\\unittest\\runner.py',
   'PYMODULE'),
  ('unittest.main',
   'C:\\Program Files (x86)\\Microsoft Visual '
   'Studio\\Shared\\Python37_64\\lib\\unittest\\main.py',
   'PYMODULE'),
  ('unittest.signals',
   'C:\\Program Files (x86)\\Microsoft Visual '
   'Studio\\Shared\\Python37_64\\lib\\unittest\\signals.py',
   'PYMODULE'),
  ('unittest',
   'C:\\Program Files (x86)\\Microsoft Visual '
   'Studio\\Shared\\Python37_64\\lib\\unittest\\__init__.py',
   'PYMODULE'),
  ('doctest',
   'C:\\Program Files (x86)\\Microsoft Visual '
   'Studio\\Shared\\Python37_64\\lib\\doctest.py',
   'PYMODULE'),
  ('stat',
   'C:\\Program Files (x86)\\Microsoft Visual '
   'Studio\\Shared\\Python37_64\\lib\\stat.py',
   'PYMODULE'),
  ('genericpath',
   'C:\\Program Files (x86)\\Microsoft Visual '
   'Studio\\Shared\\Python37_64\\lib\\genericpath.py',
   'PYMODULE'),
  ('posixpath',
   'C:\\Program Files (x86)\\Microsoft Visual '
   'Studio\\Shared\\Python37_64\\lib\\posixpath.py',
   'PYMODULE'),
  ('signal',
   'C:\\Program Files (x86)\\Microsoft Visual '
   'Studio\\Shared\\Python37_64\\lib\\signal.py',
   'PYMODULE'),
  ('contextlib',
   'C:\\Program Files (x86)\\Microsoft Visual '
   'Studio\\Shared\\Python37_64\\lib\\contextlib.py',
   'PYMODULE'),
  ('_threading_local',
   'C:\\Program Files (x86)\\Microsoft Visual '
   'Studio\\Shared\\Python37_64\\lib\\_threading_local.py',
   'PYMODULE'),
  ('threading',
   'C:\\Program Files (x86)\\Microsoft Visual '
   'Studio\\Shared\\Python37_64\\lib\\threading.py',
   'PYMODULE'),
  ('selectors',
   'C:\\Program Files (x86)\\Microsoft Visual '
   'Studio\\Shared\\Python37_64\\lib\\selectors.py',
   'PYMODULE'),
  ('subprocess',
   'C:\\Program Files (x86)\\Microsoft Visual '
   'Studio\\Shared\\Python37_64\\lib\\subprocess.py',
   'PYMODULE'),
  ('os',
   'C:\\Program Files (x86)\\Microsoft Visual '
   'Studio\\Shared\\Python37_64\\lib\\os.py',
   'PYMODULE'),
  ('gettext',
   'C:\\Program Files (x86)\\Microsoft Visual '
   'Studio\\Shared\\Python37_64\\lib\\gettext.py',
   'PYMODULE'),
  ('copy',
   'C:\\Program Files (x86)\\Microsoft Visual '
   'Studio\\Shared\\Python37_64\\lib\\copy.py',
   'PYMODULE'),
  ('textwrap',
   'C:\\Program Files (x86)\\Microsoft Visual '
   'Studio\\Shared\\Python37_64\\lib\\textwrap.py',
   'PYMODULE'),
  ('argparse',
   'C:\\Program Files (x86)\\Microsoft Visual '
   'Studio\\Shared\\Python37_64\\lib\\argparse.py',
   'PYMODULE'),
  ('pprint',
   'C:\\Program Files (x86)\\Microsoft Visual '
   'Studio\\Shared\\Python37_64\\lib\\pprint.py',
   'PYMODULE'),
  ('pickle',
   'C:\\Program Files (x86)\\Microsoft Visual '
   'Studio\\Shared\\Python37_64\\lib\\pickle.py',
   'PYMODULE'),
  ('tracemalloc',
   'C:\\Program Files (x86)\\Microsoft Visual '
   'Studio\\Shared\\Python37_64\\lib\\tracemalloc.py',
   'PYMODULE'),
  ('PyQt5',
   'c:\\users\\quinlin.riggs\\source\\repos\\install_env\\lib\\site-packages\\PyQt5\\__init__.py',
   'PYMODULE'),
  ('gui_app_class',
   'C:\\Users\\quinlin.riggs\\source\\repos\\product_crypt\\product_crypt\\src\\gui_app_class.py',
   'PYMODULE'),
  ('gui_workers_class',
   'C:\\Users\\quinlin.riggs\\source\\repos\\product_crypt\\product_crypt\\src\\gui_workers_class.py',
   'PYMODULE'),
  ('core',
   'C:\\Users\\quinlin.riggs\\source\\repos\\product_crypt\\product_crypt\\src\\core.py',
   'PYMODULE'),
  ('crypto_helpers',
   'C:\\Users\\quinlin.riggs\\source\\repos\\product_crypt\\product_crypt\\src\\crypto_helpers.py',
   'PYMODULE'),
  ('Crypto.Cipher.DES3',
   'c:\\users\\quinlin.riggs\\source\\repos\\install_env\\lib\\site-packages\\Crypto\\Cipher\\DES3.py',
   'PYMODULE'),
  ('Crypto.Util._raw_api',
   'c:\\users\\quinlin.riggs\\source\\repos\\install_env\\lib\\site-packages\\Crypto\\Util\\_raw_api.py',
   'PYMODULE'),
  ('Crypto.Util',
   'c:\\users\\quinlin.riggs\\source\\repos\\install_env\\lib\\site-packages\\Crypto\\Util\\__init__.py',
   'PYMODULE'),
  ('Crypto.Util._cpu_features',
   'c:\\users\\quinlin.riggs\\source\\repos\\install_env\\lib\\site-packages\\Crypto\\Util\\_cpu_features.py',
   'PYMODULE'),
  ('Crypto',
   'c:\\users\\quinlin.riggs\\source\\repos\\install_env\\lib\\site-packages\\Crypto\\__init__.py',
   'PYMODULE'),
  ('ctypes.util',
   'C:\\Program Files (x86)\\Microsoft Visual '
   'Studio\\Shared\\Python37_64\\lib\\ctypes\\util.py',
   'PYMODULE'),
  ('ctypes._aix',
   'C:\\Program Files (x86)\\Microsoft Visual '
   'Studio\\Shared\\Python37_64\\lib\\ctypes\\_aix.py',
   'PYMODULE'),
  ('ctypes.macholib.dyld',
   'C:\\Program Files (x86)\\Microsoft Visual '
   'Studio\\Shared\\Python37_64\\lib\\ctypes\\macholib\\dyld.py',
   'PYMODULE'),
  ('ctypes.macholib',
   'C:\\Program Files (x86)\\Microsoft Visual '
   'Studio\\Shared\\Python37_64\\lib\\ctypes\\macholib\\__init__.py',
   'PYMODULE'),
  ('ctypes.macholib.dylib',
   'C:\\Program Files (x86)\\Microsoft Visual '
   'Studio\\Shared\\Python37_64\\lib\\ctypes\\macholib\\dylib.py',
   'PYMODULE'),
  ('ctypes.macholib.framework',
   'C:\\Program Files (x86)\\Microsoft Visual '
   'Studio\\Shared\\Python37_64\\lib\\ctypes\\macholib\\framework.py',
   'PYMODULE'),
  ('ctypes',
   'C:\\Program Files (x86)\\Microsoft Visual '
   'Studio\\Shared\\Python37_64\\lib\\ctypes\\__init__.py',
   'PYMODULE'),
  ('ctypes._endian',
   'C:\\Program Files (x86)\\Microsoft Visual '
   'Studio\\Shared\\Python37_64\\lib\\ctypes\\_endian.py',
   'PYMODULE'),
  ('imp',
   'C:\\Program Files (x86)\\Microsoft Visual '
   'Studio\\Shared\\Python37_64\\lib\\imp.py',
   'PYMODULE'),
  ('Crypto.Util._file_system',
   'c:\\users\\quinlin.riggs\\source\\repos\\install_env\\lib\\site-packages\\Crypto\\Util\\_file_system.py',
   'PYMODULE'),
  ('Crypto.Util.py3compat',
   'c:\\users\\quinlin.riggs\\source\\repos\\install_env\\lib\\site-packages\\Crypto\\Util\\py3compat.py',
   'PYMODULE'),
  ('Crypto.Cipher.DES',
   'c:\\users\\quinlin.riggs\\source\\repos\\install_env\\lib\\site-packages\\Crypto\\Cipher\\DES.py',
   'PYMODULE'),
  ('Crypto.Cipher.CAST',
   'c:\\users\\quinlin.riggs\\source\\repos\\install_env\\lib\\site-packages\\Crypto\\Cipher\\CAST.py',
   'PYMODULE'),
  ('Crypto.Cipher.Blowfish',
   'c:\\users\\quinlin.riggs\\source\\repos\\install_env\\lib\\site-packages\\Crypto\\Cipher\\Blowfish.py',
   'PYMODULE'),
  ('Crypto.Cipher.ARC4',
   'c:\\users\\quinlin.riggs\\source\\repos\\install_env\\lib\\site-packages\\Crypto\\Cipher\\ARC4.py',
   'PYMODULE'),
  ('Crypto.Cipher.ARC2',
   'c:\\users\\quinlin.riggs\\source\\repos\\install_env\\lib\\site-packages\\Crypto\\Cipher\\ARC2.py',
   'PYMODULE'),
  ('path_helpers',
   'C:\\Users\\quinlin.riggs\\source\\repos\\product_crypt\\product_crypt\\src\\path_helpers.py',
   'PYMODULE'),
  ('Crypto.Cipher.AES',
   'c:\\users\\quinlin.riggs\\source\\repos\\install_env\\lib\\site-packages\\Crypto\\Cipher\\AES.py',
   'PYMODULE'),
  ('Crypto.Random',
   'c:\\users\\quinlin.riggs\\source\\repos\\install_env\\lib\\site-packages\\Crypto\\Random\\__init__.py',
   'PYMODULE'),
  ('Crypto.Cipher',
   'c:\\users\\quinlin.riggs\\source\\repos\\install_env\\lib\\site-packages\\Crypto\\Cipher\\__init__.py',
   'PYMODULE'),
  ('Crypto.Cipher._mode_ocb',
   'c:\\users\\quinlin.riggs\\source\\repos\\install_env\\lib\\site-packages\\Crypto\\Cipher\\_mode_ocb.py',
   'PYMODULE'),
  ('Crypto.Hash.BLAKE2s',
   'c:\\users\\quinlin.riggs\\source\\repos\\install_env\\lib\\site-packages\\Crypto\\Hash\\BLAKE2s.py',
   'PYMODULE'),
  ('Crypto.Hash',
   'c:\\users\\quinlin.riggs\\source\\repos\\install_env\\lib\\site-packages\\Crypto\\Hash\\__init__.py',
   'PYMODULE'),
  ('Crypto.Hash.HMAC',
   'c:\\users\\quinlin.riggs\\source\\repos\\install_env\\lib\\site-packages\\Crypto\\Hash\\HMAC.py',
   'PYMODULE'),
  ('Crypto.Hash.MD5',
   'c:\\users\\quinlin.riggs\\source\\repos\\install_env\\lib\\site-packages\\Crypto\\Hash\\MD5.py',
   'PYMODULE'),
  ('Crypto.Hash.SHA256',
   'c:\\users\\quinlin.riggs\\source\\repos\\install_env\\lib\\site-packages\\Crypto\\Hash\\SHA256.py',
   'PYMODULE'),
  ('Crypto.Hash.SHA1',
   'c:\\users\\quinlin.riggs\\source\\repos\\install_env\\lib\\site-packages\\Crypto\\Hash\\SHA1.py',
   'PYMODULE'),
  ('Crypto.Hash.CMAC',
   'c:\\users\\quinlin.riggs\\source\\repos\\install_env\\lib\\site-packages\\Crypto\\Hash\\CMAC.py',
   'PYMODULE'),
  ('Crypto.Util.strxor',
   'c:\\users\\quinlin.riggs\\source\\repos\\install_env\\lib\\site-packages\\Crypto\\Util\\strxor.py',
   'PYMODULE'),
  ('Crypto.Util.number',
   'c:\\users\\quinlin.riggs\\source\\repos\\install_env\\lib\\site-packages\\Crypto\\Util\\number.py',
   'PYMODULE'),
  ('Crypto.Cipher._mode_gcm',
   'c:\\users\\quinlin.riggs\\source\\repos\\install_env\\lib\\site-packages\\Crypto\\Cipher\\_mode_gcm.py',
   'PYMODULE'),
  ('Crypto.Cipher._mode_siv',
   'c:\\users\\quinlin.riggs\\source\\repos\\install_env\\lib\\site-packages\\Crypto\\Cipher\\_mode_siv.py',
   'PYMODULE'),
  ('Crypto.Protocol.KDF',
   'c:\\users\\quinlin.riggs\\source\\repos\\install_env\\lib\\site-packages\\Crypto\\Protocol\\KDF.py',
   'PYMODULE'),
  ('Crypto.Protocol',
   'c:\\users\\quinlin.riggs\\source\\repos\\install_env\\lib\\site-packages\\Crypto\\Protocol\\__init__.py',
   'PYMODULE'),
  ('Crypto.Cipher._EKSBlowfish',
   'c:\\users\\quinlin.riggs\\source\\repos\\install_env\\lib\\site-packages\\Crypto\\Cipher\\_EKSBlowfish.py',
   'PYMODULE'),
  ('Crypto.Cipher._mode_eax',
   'c:\\users\\quinlin.riggs\\source\\repos\\install_env\\lib\\site-packages\\Crypto\\Cipher\\_mode_eax.py',
   'PYMODULE'),
  ('Crypto.Cipher._mode_ccm',
   'c:\\users\\quinlin.riggs\\source\\repos\\install_env\\lib\\site-packages\\Crypto\\Cipher\\_mode_ccm.py',
   'PYMODULE'),
  ('Crypto.Cipher._mode_openpgp',
   'c:\\users\\quinlin.riggs\\source\\repos\\install_env\\lib\\site-packages\\Crypto\\Cipher\\_mode_openpgp.py',
   'PYMODULE'),
  ('Crypto.Cipher._mode_ctr',
   'c:\\users\\quinlin.riggs\\source\\repos\\install_env\\lib\\site-packages\\Crypto\\Cipher\\_mode_ctr.py',
   'PYMODULE'),
  ('Crypto.Cipher._mode_ofb',
   'c:\\users\\quinlin.riggs\\source\\repos\\install_env\\lib\\site-packages\\Crypto\\Cipher\\_mode_ofb.py',
   'PYMODULE'),
  ('Crypto.Cipher._mode_cfb',
   'c:\\users\\quinlin.riggs\\source\\repos\\install_env\\lib\\site-packages\\Crypto\\Cipher\\_mode_cfb.py',
   'PYMODULE'),
  ('Crypto.Cipher._mode_cbc',
   'c:\\users\\quinlin.riggs\\source\\repos\\install_env\\lib\\site-packages\\Crypto\\Cipher\\_mode_cbc.py',
   'PYMODULE'),
  ('Crypto.Cipher._mode_ecb',
   'c:\\users\\quinlin.riggs\\source\\repos\\install_env\\lib\\site-packages\\Crypto\\Cipher\\_mode_ecb.py',
   'PYMODULE'),
  ('pathlib',
   'C:\\Program Files (x86)\\Microsoft Visual '
   'Studio\\Shared\\Python37_64\\lib\\pathlib.py',
   'PYMODULE'),
  ('xml.etree.ElementTree',
   'C:\\Program Files (x86)\\Microsoft Visual '
   'Studio\\Shared\\Python37_64\\lib\\xml\\etree\\ElementTree.py',
   'PYMODULE'),
  ('xml.etree.cElementTree',
   'C:\\Program Files (x86)\\Microsoft Visual '
   'Studio\\Shared\\Python37_64\\lib\\xml\\etree\\cElementTree.py',
   'PYMODULE'),
  ('xml.etree.ElementInclude',
   'C:\\Program Files (x86)\\Microsoft Visual '
   'Studio\\Shared\\Python37_64\\lib\\xml\\etree\\ElementInclude.py',
   'PYMODULE'),
  ('xml.etree.ElementPath',
   'C:\\Program Files (x86)\\Microsoft Visual '
   'Studio\\Shared\\Python37_64\\lib\\xml\\etree\\ElementPath.py',
   'PYMODULE'),
  ('xml.etree',
   'C:\\Program Files (x86)\\Microsoft Visual '
   'Studio\\Shared\\Python37_64\\lib\\xml\\etree\\__init__.py',
   'PYMODULE'),
  ('gui_main_window_class',
   'C:\\Users\\quinlin.riggs\\source\\repos\\product_crypt\\product_crypt\\src\\gui_main_window_class.py',
   'PYMODULE')],
 [('PyQt5\\Qt\\plugins\\imageformats\\qjpeg.dll',
   'C:\\users\\quinlin.riggs\\source\\repos\\install_env\\lib\\site-packages\\PyQt5\\Qt\\plugins\\imageformats\\qjpeg.dll',
   'BINARY'),
  ('Crypto\\Hash\\_BLAKE2s.cp37-win_amd64.pyd',
   'c:\\users\\quinlin.riggs\\source\\repos\\install_env\\lib\\site-packages\\Crypto\\Hash\\_BLAKE2s.cp37-win_amd64.pyd',
   'BINARY'),
  ('PyQt5\\Qt\\plugins\\imageformats\\qwebp.dll',
   'C:\\users\\quinlin.riggs\\source\\repos\\install_env\\lib\\site-packages\\PyQt5\\Qt\\plugins\\imageformats\\qwebp.dll',
   'BINARY'),
  ('PyQt5\\Qt\\bin\\libEGL.dll',
   'C:\\users\\quinlin.riggs\\source\\repos\\install_env\\lib\\site-packages\\PyQt5\\Qt\\bin\\libEGL.dll',
   'BINARY'),
  ('PyQt5\\Qt\\bin\\libGLESv2.dll',
   'C:\\users\\quinlin.riggs\\source\\repos\\install_env\\lib\\site-packages\\PyQt5\\Qt\\bin\\libGLESv2.dll',
   'BINARY'),
  ('Crypto\\Hash\\_SHA1.cp37-win_amd64.pyd',
   'c:\\users\\quinlin.riggs\\source\\repos\\install_env\\lib\\site-packages\\Crypto\\Hash\\_SHA1.cp37-win_amd64.pyd',
   'BINARY'),
  ('Crypto\\Hash\\_SHA224.cp37-win_amd64.pyd',
   'c:\\users\\quinlin.riggs\\source\\repos\\install_env\\lib\\site-packages\\Crypto\\Hash\\_SHA224.cp37-win_amd64.pyd',
   'BINARY'),
  ('PyQt5\\Qt\\plugins\\platforms\\qoffscreen.dll',
   'C:\\users\\quinlin.riggs\\source\\repos\\install_env\\lib\\site-packages\\PyQt5\\Qt\\plugins\\platforms\\qoffscreen.dll',
   'BINARY'),
  ('PyQt5\\Qt\\plugins\\imageformats\\qtga.dll',
   'C:\\users\\quinlin.riggs\\source\\repos\\install_env\\lib\\site-packages\\PyQt5\\Qt\\plugins\\imageformats\\qtga.dll',
   'BINARY'),
  ('PyQt5\\Qt\\plugins\\platforms\\qwebgl.dll',
   'C:\\users\\quinlin.riggs\\source\\repos\\install_env\\lib\\site-packages\\PyQt5\\Qt\\plugins\\platforms\\qwebgl.dll',
   'BINARY'),
  ('Crypto\\Cipher\\_raw_des.cp37-win_amd64.pyd',
   'c:\\users\\quinlin.riggs\\source\\repos\\install_env\\lib\\site-packages\\Crypto\\Cipher\\_raw_des.cp37-win_amd64.pyd',
   'BINARY'),
  ('Crypto\\Cipher\\_raw_des3.cp37-win_amd64.pyd',
   'c:\\users\\quinlin.riggs\\source\\repos\\install_env\\lib\\site-packages\\Crypto\\Cipher\\_raw_des3.cp37-win_amd64.pyd',
   'BINARY'),
  ('Crypto\\Util\\_strxor.cp37-win_amd64.pyd',
   'c:\\users\\quinlin.riggs\\source\\repos\\install_env\\lib\\site-packages\\Crypto\\Util\\_strxor.cp37-win_amd64.pyd',
   'BINARY'),
  ('Crypto\\Util\\_cpuid_c.cp37-win_amd64.pyd',
   'c:\\users\\quinlin.riggs\\source\\repos\\install_env\\lib\\site-packages\\Crypto\\Util\\_cpuid_c.cp37-win_amd64.pyd',
   'BINARY'),
  ('Crypto\\Cipher\\_ARC4.cp37-win_amd64.pyd',
   'c:\\users\\quinlin.riggs\\source\\repos\\install_env\\lib\\site-packages\\Crypto\\Cipher\\_ARC4.cp37-win_amd64.pyd',
   'BINARY'),
  ('Crypto\\Hash\\_MD2.cp37-win_amd64.pyd',
   'c:\\users\\quinlin.riggs\\source\\repos\\install_env\\lib\\site-packages\\Crypto\\Hash\\_MD2.cp37-win_amd64.pyd',
   'BINARY'),
  ('Crypto\\Cipher\\_raw_ctr.cp37-win_amd64.pyd',
   'c:\\users\\quinlin.riggs\\source\\repos\\install_env\\lib\\site-packages\\Crypto\\Cipher\\_raw_ctr.cp37-win_amd64.pyd',
   'BINARY'),
  ('Crypto\\Hash\\_BLAKE2b.cp37-win_amd64.pyd',
   'c:\\users\\quinlin.riggs\\source\\repos\\install_env\\lib\\site-packages\\Crypto\\Hash\\_BLAKE2b.cp37-win_amd64.pyd',
   'BINARY'),
  ('PyQt5\\Qt\\plugins\\imageformats\\qsvg.dll',
   'C:\\users\\quinlin.riggs\\source\\repos\\install_env\\lib\\site-packages\\PyQt5\\Qt\\plugins\\imageformats\\qsvg.dll',
   'BINARY'),
  ('Crypto\\Cipher\\_chacha20.cp37-win_amd64.pyd',
   'c:\\users\\quinlin.riggs\\source\\repos\\install_env\\lib\\site-packages\\Crypto\\Cipher\\_chacha20.cp37-win_amd64.pyd',
   'BINARY'),
  ('Crypto\\Cipher\\_raw_cast.cp37-win_amd64.pyd',
   'c:\\users\\quinlin.riggs\\source\\repos\\install_env\\lib\\site-packages\\Crypto\\Cipher\\_raw_cast.cp37-win_amd64.pyd',
   'BINARY'),
  ('Crypto\\Hash\\_ghash_clmul.cp37-win_amd64.pyd',
   'c:\\users\\quinlin.riggs\\source\\repos\\install_env\\lib\\site-packages\\Crypto\\Hash\\_ghash_clmul.cp37-win_amd64.pyd',
   'BINARY'),
  ('Crypto\\Hash\\_ghash_portable.cp37-win_amd64.pyd',
   'c:\\users\\quinlin.riggs\\source\\repos\\install_env\\lib\\site-packages\\Crypto\\Hash\\_ghash_portable.cp37-win_amd64.pyd',
   'BINARY'),
  ('Crypto\\Protocol\\_scrypt.cp37-win_amd64.pyd',
   'c:\\users\\quinlin.riggs\\source\\repos\\install_env\\lib\\site-packages\\Crypto\\Protocol\\_scrypt.cp37-win_amd64.pyd',
   'BINARY'),
  ('PyQt5\\Qt\\plugins\\platforms\\qwindows.dll',
   'C:\\users\\quinlin.riggs\\source\\repos\\install_env\\lib\\site-packages\\PyQt5\\Qt\\plugins\\platforms\\qwindows.dll',
   'BINARY'),
  ('Crypto\\Hash\\_SHA512.cp37-win_amd64.pyd',
   'c:\\users\\quinlin.riggs\\source\\repos\\install_env\\lib\\site-packages\\Crypto\\Hash\\_SHA512.cp37-win_amd64.pyd',
   'BINARY'),
  ('PyQt5\\Qt\\plugins\\imageformats\\qico.dll',
   'C:\\users\\quinlin.riggs\\source\\repos\\install_env\\lib\\site-packages\\PyQt5\\Qt\\plugins\\imageformats\\qico.dll',
   'BINARY'),
  ('PyQt5\\Qt\\plugins\\platformthemes\\qxdgdesktopportal.dll',
   'C:\\users\\quinlin.riggs\\source\\repos\\install_env\\lib\\site-packages\\PyQt5\\Qt\\plugins\\platformthemes\\qxdgdesktopportal.dll',
   'BINARY'),
  ('Crypto\\Cipher\\_Salsa20.cp37-win_amd64.pyd',
   'c:\\users\\quinlin.riggs\\source\\repos\\install_env\\lib\\site-packages\\Crypto\\Cipher\\_Salsa20.cp37-win_amd64.pyd',
   'BINARY'),
  ('Crypto\\Cipher\\_raw_ofb.cp37-win_amd64.pyd',
   'c:\\users\\quinlin.riggs\\source\\repos\\install_env\\lib\\site-packages\\Crypto\\Cipher\\_raw_ofb.cp37-win_amd64.pyd',
   'BINARY'),
  ('Crypto\\Hash\\_MD5.cp37-win_amd64.pyd',
   'c:\\users\\quinlin.riggs\\source\\repos\\install_env\\lib\\site-packages\\Crypto\\Hash\\_MD5.cp37-win_amd64.pyd',
   'BINARY'),
  ('Crypto\\Hash\\_MD4.cp37-win_amd64.pyd',
   'c:\\users\\quinlin.riggs\\source\\repos\\install_env\\lib\\site-packages\\Crypto\\Hash\\_MD4.cp37-win_amd64.pyd',
   'BINARY'),
  ('PyQt5\\Qt\\bin\\d3dcompiler_47.dll',
   'C:\\users\\quinlin.riggs\\source\\repos\\install_env\\lib\\site-packages\\PyQt5\\Qt\\bin\\d3dcompiler_47.dll',
   'BINARY'),
  ('Crypto\\Hash\\_RIPEMD160.cp37-win_amd64.pyd',
   'c:\\users\\quinlin.riggs\\source\\repos\\install_env\\lib\\site-packages\\Crypto\\Hash\\_RIPEMD160.cp37-win_amd64.pyd',
   'BINARY'),
  ('Crypto\\Cipher\\_raw_aesni.cp37-win_amd64.pyd',
   'c:\\users\\quinlin.riggs\\source\\repos\\install_env\\lib\\site-packages\\Crypto\\Cipher\\_raw_aesni.cp37-win_amd64.pyd',
   'BINARY'),
  ('Crypto\\Cipher\\_raw_ecb.cp37-win_amd64.pyd',
   'c:\\users\\quinlin.riggs\\source\\repos\\install_env\\lib\\site-packages\\Crypto\\Cipher\\_raw_ecb.cp37-win_amd64.pyd',
   'BINARY'),
  ('PyQt5\\Qt\\plugins\\iconengines\\qsvgicon.dll',
   'C:\\users\\quinlin.riggs\\source\\repos\\install_env\\lib\\site-packages\\PyQt5\\Qt\\plugins\\iconengines\\qsvgicon.dll',
   'BINARY'),
  ('PyQt5\\Qt\\plugins\\platforms\\qminimal.dll',
   'C:\\users\\quinlin.riggs\\source\\repos\\install_env\\lib\\site-packages\\PyQt5\\Qt\\plugins\\platforms\\qminimal.dll',
   'BINARY'),
  ('Crypto\\Hash\\_SHA384.cp37-win_amd64.pyd',
   'c:\\users\\quinlin.riggs\\source\\repos\\install_env\\lib\\site-packages\\Crypto\\Hash\\_SHA384.cp37-win_amd64.pyd',
   'BINARY'),
  ('Crypto\\Cipher\\_raw_ocb.cp37-win_amd64.pyd',
   'c:\\users\\quinlin.riggs\\source\\repos\\install_env\\lib\\site-packages\\Crypto\\Cipher\\_raw_ocb.cp37-win_amd64.pyd',
   'BINARY'),
  ('Crypto\\Hash\\_poly1305.cp37-win_amd64.pyd',
   'c:\\users\\quinlin.riggs\\source\\repos\\install_env\\lib\\site-packages\\Crypto\\Hash\\_poly1305.cp37-win_amd64.pyd',
   'BINARY'),
  ('PyQt5\\Qt\\plugins\\imageformats\\qgif.dll',
   'C:\\users\\quinlin.riggs\\source\\repos\\install_env\\lib\\site-packages\\PyQt5\\Qt\\plugins\\imageformats\\qgif.dll',
   'BINARY'),
  ('Crypto\\Cipher\\_raw_cbc.cp37-win_amd64.pyd',
   'c:\\users\\quinlin.riggs\\source\\repos\\install_env\\lib\\site-packages\\Crypto\\Cipher\\_raw_cbc.cp37-win_amd64.pyd',
   'BINARY'),
  ('Crypto\\Cipher\\_raw_blowfish.cp37-win_amd64.pyd',
   'c:\\users\\quinlin.riggs\\source\\repos\\install_env\\lib\\site-packages\\Crypto\\Cipher\\_raw_blowfish.cp37-win_amd64.pyd',
   'BINARY'),
  ('Crypto\\Cipher\\_raw_eksblowfish.cp37-win_amd64.pyd',
   'c:\\users\\quinlin.riggs\\source\\repos\\install_env\\lib\\site-packages\\Crypto\\Cipher\\_raw_eksblowfish.cp37-win_amd64.pyd',
   'BINARY'),
  ('PyQt5\\Qt\\plugins\\imageformats\\qicns.dll',
   'C:\\users\\quinlin.riggs\\source\\repos\\install_env\\lib\\site-packages\\PyQt5\\Qt\\plugins\\imageformats\\qicns.dll',
   'BINARY'),
  ('PyQt5\\Qt\\plugins\\styles\\qwindowsvistastyle.dll',
   'C:\\users\\quinlin.riggs\\source\\repos\\install_env\\lib\\site-packages\\PyQt5\\Qt\\plugins\\styles\\qwindowsvistastyle.dll',
   'BINARY'),
  ('Crypto\\Hash\\_keccak.cp37-win_amd64.pyd',
   'c:\\users\\quinlin.riggs\\source\\repos\\install_env\\lib\\site-packages\\Crypto\\Hash\\_keccak.cp37-win_amd64.pyd',
   'BINARY'),
  ('PyQt5\\Qt\\plugins\\imageformats\\qtiff.dll',
   'C:\\users\\quinlin.riggs\\source\\repos\\install_env\\lib\\site-packages\\PyQt5\\Qt\\plugins\\imageformats\\qtiff.dll',
   'BINARY'),
  ('Crypto\\Math\\_modexp.cp37-win_amd64.pyd',
   'c:\\users\\quinlin.riggs\\source\\repos\\install_env\\lib\\site-packages\\Crypto\\Math\\_modexp.cp37-win_amd64.pyd',
   'BINARY'),
  ('PyQt5\\Qt\\plugins\\imageformats\\qwbmp.dll',
   'C:\\users\\quinlin.riggs\\source\\repos\\install_env\\lib\\site-packages\\PyQt5\\Qt\\plugins\\imageformats\\qwbmp.dll',
   'BINARY'),
  ('Crypto\\Cipher\\_raw_arc2.cp37-win_amd64.pyd',
   'c:\\users\\quinlin.riggs\\source\\repos\\install_env\\lib\\site-packages\\Crypto\\Cipher\\_raw_arc2.cp37-win_amd64.pyd',
   'BINARY'),
  ('Crypto\\PublicKey\\_ec_ws.cp37-win_amd64.pyd',
   'c:\\users\\quinlin.riggs\\source\\repos\\install_env\\lib\\site-packages\\Crypto\\PublicKey\\_ec_ws.cp37-win_amd64.pyd',
   'BINARY'),
  ('PyQt5\\Qt\\bin\\opengl32sw.dll',
   'C:\\users\\quinlin.riggs\\source\\repos\\install_env\\lib\\site-packages\\PyQt5\\Qt\\bin\\opengl32sw.dll',
   'BINARY'),
  ('Crypto\\Cipher\\_raw_cfb.cp37-win_amd64.pyd',
   'c:\\users\\quinlin.riggs\\source\\repos\\install_env\\lib\\site-packages\\Crypto\\Cipher\\_raw_cfb.cp37-win_amd64.pyd',
   'BINARY'),
  ('Crypto\\Cipher\\_raw_aes.cp37-win_amd64.pyd',
   'c:\\users\\quinlin.riggs\\source\\repos\\install_env\\lib\\site-packages\\Crypto\\Cipher\\_raw_aes.cp37-win_amd64.pyd',
   'BINARY'),
  ('Crypto\\Hash\\_SHA256.cp37-win_amd64.pyd',
   'c:\\users\\quinlin.riggs\\source\\repos\\install_env\\lib\\site-packages\\Crypto\\Hash\\_SHA256.cp37-win_amd64.pyd',
   'BINARY'),
  ('_ssl',
   'C:\\Program Files (x86)\\Microsoft Visual '
   'Studio\\Shared\\Python37_64\\DLLs\\_ssl.pyd',
   'EXTENSION'),
  ('pyexpat',
   'C:\\Program Files (x86)\\Microsoft Visual '
   'Studio\\Shared\\Python37_64\\DLLs\\pyexpat.pyd',
   'EXTENSION'),
  ('unicodedata',
   'C:\\Program Files (x86)\\Microsoft Visual '
   'Studio\\Shared\\Python37_64\\DLLs\\unicodedata.pyd',
   'EXTENSION'),
  ('_hashlib',
   'C:\\Program Files (x86)\\Microsoft Visual '
   'Studio\\Shared\\Python37_64\\DLLs\\_hashlib.pyd',
   'EXTENSION'),
  ('_bz2',
   'C:\\Program Files (x86)\\Microsoft Visual '
   'Studio\\Shared\\Python37_64\\DLLs\\_bz2.pyd',
   'EXTENSION'),
  ('_lzma',
   'C:\\Program Files (x86)\\Microsoft Visual '
   'Studio\\Shared\\Python37_64\\DLLs\\_lzma.pyd',
   'EXTENSION'),
  ('_socket',
   'C:\\Program Files (x86)\\Microsoft Visual '
   'Studio\\Shared\\Python37_64\\DLLs\\_socket.pyd',
   'EXTENSION'),
  ('select',
   'C:\\Program Files (x86)\\Microsoft Visual '
   'Studio\\Shared\\Python37_64\\DLLs\\select.pyd',
   'EXTENSION'),
  ('PyQt5.QtWidgets',
   'c:\\users\\quinlin.riggs\\source\\repos\\install_env\\lib\\site-packages\\PyQt5\\QtWidgets.pyd',
   'EXTENSION'),
  ('PyQt5.QtCore',
   'c:\\users\\quinlin.riggs\\source\\repos\\install_env\\lib\\site-packages\\PyQt5\\QtCore.pyd',
   'EXTENSION'),
  ('PyQt5.QtGui',
   'c:\\users\\quinlin.riggs\\source\\repos\\install_env\\lib\\site-packages\\PyQt5\\QtGui.pyd',
   'EXTENSION'),
  ('PyQt5.sip',
   'c:\\users\\quinlin.riggs\\source\\repos\\install_env\\lib\\site-packages\\PyQt5\\sip.pyd',
   'EXTENSION'),
  ('_ctypes',
   'C:\\Program Files (x86)\\Microsoft Visual '
   'Studio\\Shared\\Python37_64\\DLLs\\_ctypes.pyd',
   'EXTENSION'),
  ('_elementtree',
   'C:\\Program Files (x86)\\Microsoft Visual '
   'Studio\\Shared\\Python37_64\\DLLs\\_elementtree.pyd',
   'EXTENSION'),
  ('api-ms-win-crt-heap-l1-1-0.dll',
   'C:\\Program Files\\Mozilla Firefox\\api-ms-win-crt-heap-l1-1-0.dll',
   'BINARY'),
  ('api-ms-win-crt-runtime-l1-1-0.dll',
   'C:\\Program Files\\Mozilla Firefox\\api-ms-win-crt-runtime-l1-1-0.dll',
   'BINARY'),
  ('api-ms-win-crt-math-l1-1-0.dll',
   'C:\\Program Files\\Mozilla Firefox\\api-ms-win-crt-math-l1-1-0.dll',
   'BINARY'),
  ('api-ms-win-crt-environment-l1-1-0.dll',
   'C:\\Program Files\\Mozilla Firefox\\api-ms-win-crt-environment-l1-1-0.dll',
   'BINARY'),
  ('Qt5Core.dll',
   'c:\\users\\quinlin.riggs\\source\\repos\\install_env\\lib\\site-packages\\PyQt5\\Qt\\bin\\qt5core.dll',
   'BINARY'),
  ('Qt5Gui.dll',
   'c:\\users\\quinlin.riggs\\source\\repos\\install_env\\lib\\site-packages\\PyQt5\\Qt\\bin\\qt5gui.dll',
   'BINARY'),
  ('api-ms-win-crt-stdio-l1-1-0.dll',
   'C:\\Program Files\\Mozilla Firefox\\api-ms-win-crt-stdio-l1-1-0.dll',
   'BINARY'),
  ('VCRUNTIME140.dll',
   'C:\\Program Files (x86)\\Microsoft Visual '
   'Studio\\Shared\\Python37_64\\vcruntime140.dll',
   'BINARY'),
  ('api-ms-win-crt-utility-l1-1-0.dll',
   'C:\\Program Files\\Mozilla Firefox\\api-ms-win-crt-utility-l1-1-0.dll',
   'BINARY'),
  ('libGLESv2.dll',
   'C:\\users\\quinlin.riggs\\source\\repos\\install_env\\lib\\site-packages\\PyQt5\\Qt\\bin\\libGLESv2.dll',
   'BINARY'),
  ('api-ms-win-crt-string-l1-1-0.dll',
   'C:\\Program Files\\Mozilla Firefox\\api-ms-win-crt-string-l1-1-0.dll',
   'BINARY'),
  ('MSVCP140.dll',
   'C:\\users\\quinlin.riggs\\source\\repos\\install_env\\lib\\site-packages\\PyQt5\\Qt\\bin\\MSVCP140.dll',
   'BINARY'),
  ('api-ms-win-crt-convert-l1-1-0.dll',
   'C:\\Program Files\\Mozilla Firefox\\api-ms-win-crt-convert-l1-1-0.dll',
   'BINARY'),
  ('Qt5Network.dll',
   'c:\\users\\quinlin.riggs\\source\\repos\\install_env\\lib\\site-packages\\PyQt5\\Qt\\bin\\qt5network.dll',
   'BINARY'),
  ('Qt5WebSockets.dll',
   'c:\\users\\quinlin.riggs\\source\\repos\\install_env\\lib\\site-packages\\PyQt5\\Qt\\bin\\qt5websockets.dll',
   'BINARY'),
  ('Qt5Quick.dll',
   'c:\\users\\quinlin.riggs\\source\\repos\\install_env\\lib\\site-packages\\PyQt5\\Qt\\bin\\qt5quick.dll',
   'BINARY'),
  ('Qt5Svg.dll',
   'c:\\users\\quinlin.riggs\\source\\repos\\install_env\\lib\\site-packages\\PyQt5\\Qt\\bin\\qt5svg.dll',
   'BINARY'),
  ('Qt5DBus.dll',
   'c:\\users\\quinlin.riggs\\source\\repos\\install_env\\lib\\site-packages\\PyQt5\\Qt\\bin\\qt5dbus.dll',
   'BINARY'),
  ('Qt5Widgets.dll',
   'c:\\users\\quinlin.riggs\\source\\repos\\install_env\\lib\\site-packages\\PyQt5\\Qt\\bin\\qt5widgets.dll',
   'BINARY'),
  ('libcrypto-1_1.dll',
   'C:\\Program Files (x86)\\Microsoft Visual '
   'Studio\\Shared\\Python37_64\\DLLs\\libcrypto-1_1.dll',
   'BINARY'),
  ('python37.dll',
   'C:\\Program Files (x86)\\Microsoft Visual '
   'Studio\\Shared\\Python37_64\\python37.dll',
   'BINARY'),
  ('libssl-1_1.dll',
   'C:\\Program Files (x86)\\Microsoft Visual '
   'Studio\\Shared\\Python37_64\\DLLs\\libssl-1_1.dll',
   'BINARY'),
  ('python3.dll',
   'C:\\Program Files (x86)\\Microsoft Visual '
   'Studio\\Shared\\Python37_64\\python3.dll',
   'BINARY'),
  ('ucrtbase.dll',
   'C:\\Program Files\\Mozilla Firefox\\ucrtbase.dll',
   'BINARY'),
  ('api-ms-win-crt-filesystem-l1-1-0.dll',
   'C:\\Program Files\\Mozilla Firefox\\api-ms-win-crt-filesystem-l1-1-0.dll',
   'BINARY'),
  ('api-ms-win-crt-time-l1-1-0.dll',
   'C:\\Program Files\\Mozilla Firefox\\api-ms-win-crt-time-l1-1-0.dll',
   'BINARY'),
  ('api-ms-win-crt-locale-l1-1-0.dll',
   'C:\\Program Files\\Mozilla Firefox\\api-ms-win-crt-locale-l1-1-0.dll',
   'BINARY'),
  ('api-ms-win-crt-multibyte-l1-1-0.dll',
   'C:\\Program Files\\Mozilla Firefox\\api-ms-win-crt-multibyte-l1-1-0.dll',
   'BINARY'),
  ('Qt5Qml.dll',
   'c:\\users\\quinlin.riggs\\source\\repos\\install_env\\lib\\site-packages\\PyQt5\\Qt\\bin\\Qt5Qml.dll',
   'BINARY'),
  ('api-ms-win-crt-process-l1-1-0.dll',
   'C:\\Program Files\\Mozilla Firefox\\api-ms-win-crt-process-l1-1-0.dll',
   'BINARY'),
  ('api-ms-win-crt-conio-l1-1-0.dll',
   'C:\\Program Files\\Mozilla Firefox\\api-ms-win-crt-conio-l1-1-0.dll',
   'BINARY'),
  ('api-ms-win-core-file-l1-2-0.dll',
   'C:\\Program Files\\Mozilla Firefox\\api-ms-win-core-file-l1-2-0.dll',
   'BINARY'),
  ('api-ms-win-core-localization-l1-2-0.dll',
   'C:\\Program Files\\Mozilla '
   'Firefox\\api-ms-win-core-localization-l1-2-0.dll',
   'BINARY'),
  ('api-ms-win-core-processthreads-l1-1-1.dll',
   'C:\\Program Files\\Mozilla '
   'Firefox\\api-ms-win-core-processthreads-l1-1-1.dll',
   'BINARY'),
  ('api-ms-win-core-timezone-l1-1-0.dll',
   'C:\\Program Files\\Mozilla Firefox\\api-ms-win-core-timezone-l1-1-0.dll',
   'BINARY'),
  ('api-ms-win-core-synch-l1-2-0.dll',
   'C:\\Program Files\\Mozilla Firefox\\api-ms-win-core-synch-l1-2-0.dll',
   'BINARY'),
  ('api-ms-win-core-file-l2-1-0.dll',
   'C:\\Program Files\\Mozilla Firefox\\api-ms-win-core-file-l2-1-0.dll',
   'BINARY')],
 [],
 [],
 [('base_library.zip',
   'C:\\Users\\quinlin.riggs\\source\\repos\\product_crypt\\product_crypt\\build\\UpdateUnitInfo\\base_library.zip',
   'DATA'),
  ('PyQt5\\translations\\qtbase_bg.qm',
   'C:\\users\\quinlin.riggs\\source\\repos\\install_env\\lib\\site-packages\\PyQt5\\Qt\\translations\\qtbase_bg.qm',
   'DATA'),
  ('PyQt5\\translations\\qtbase_da.qm',
   'C:\\users\\quinlin.riggs\\source\\repos\\install_env\\lib\\site-packages\\PyQt5\\Qt\\translations\\qtbase_da.qm',
   'DATA'),
  ('PyQt5\\translations\\qtbase_fr.qm',
   'C:\\users\\quinlin.riggs\\source\\repos\\install_env\\lib\\site-packages\\PyQt5\\Qt\\translations\\qtbase_fr.qm',
   'DATA'),
  ('PyQt5\\translations\\qtbase_ru.qm',
   'C:\\users\\quinlin.riggs\\source\\repos\\install_env\\lib\\site-packages\\PyQt5\\Qt\\translations\\qtbase_ru.qm',
   'DATA'),
  ('PyQt5\\translations\\qtbase_sk.qm',
   'C:\\users\\quinlin.riggs\\source\\repos\\install_env\\lib\\site-packages\\PyQt5\\Qt\\translations\\qtbase_sk.qm',
   'DATA'),
  ('PyQt5\\translations\\qtbase_uk.qm',
   'C:\\users\\quinlin.riggs\\source\\repos\\install_env\\lib\\site-packages\\PyQt5\\Qt\\translations\\qtbase_uk.qm',
   'DATA'),
  ('PyQt5\\translations\\qtbase_hu.qm',
   'C:\\users\\quinlin.riggs\\source\\repos\\install_env\\lib\\site-packages\\PyQt5\\Qt\\translations\\qtbase_hu.qm',
   'DATA'),
  ('PyQt5\\translations\\qtbase_de.qm',
   'C:\\users\\quinlin.riggs\\source\\repos\\install_env\\lib\\site-packages\\PyQt5\\Qt\\translations\\qtbase_de.qm',
   'DATA'),
  ('PyQt5\\translations\\qtbase_gd.qm',
   'C:\\users\\quinlin.riggs\\source\\repos\\install_env\\lib\\site-packages\\PyQt5\\Qt\\translations\\qtbase_gd.qm',
   'DATA'),
  ('PyQt5\\translations\\qtbase_ko.qm',
   'C:\\users\\quinlin.riggs\\source\\repos\\install_env\\lib\\site-packages\\PyQt5\\Qt\\translations\\qtbase_ko.qm',
   'DATA'),
  ('PyQt5\\translations\\qtbase_zh_TW.qm',
   'C:\\users\\quinlin.riggs\\source\\repos\\install_env\\lib\\site-packages\\PyQt5\\Qt\\translations\\qtbase_zh_TW.qm',
   'DATA'),
  ('PyQt5\\translations\\qtbase_cs.qm',
   'C:\\users\\quinlin.riggs\\source\\repos\\install_env\\lib\\site-packages\\PyQt5\\Qt\\translations\\qtbase_cs.qm',
   'DATA'),
  ('PyQt5\\translations\\qtbase_lv.qm',
   'C:\\users\\quinlin.riggs\\source\\repos\\install_env\\lib\\site-packages\\PyQt5\\Qt\\translations\\qtbase_lv.qm',
   'DATA'),
  ('PyQt5\\translations\\qtbase_he.qm',
   'C:\\users\\quinlin.riggs\\source\\repos\\install_env\\lib\\site-packages\\PyQt5\\Qt\\translations\\qtbase_he.qm',
   'DATA'),
  ('PyQt5\\translations\\qtbase_ar.qm',
   'C:\\users\\quinlin.riggs\\source\\repos\\install_env\\lib\\site-packages\\PyQt5\\Qt\\translations\\qtbase_ar.qm',
   'DATA'),
  ('PyQt5\\translations\\qtbase_it.qm',
   'C:\\users\\quinlin.riggs\\source\\repos\\install_env\\lib\\site-packages\\PyQt5\\Qt\\translations\\qtbase_it.qm',
   'DATA'),
  ('PyQt5\\translations\\qtbase_en.qm',
   'C:\\users\\quinlin.riggs\\source\\repos\\install_env\\lib\\site-packages\\PyQt5\\Qt\\translations\\qtbase_en.qm',
   'DATA'),
  ('PyQt5\\translations\\qtbase_fi.qm',
   'C:\\users\\quinlin.riggs\\source\\repos\\install_env\\lib\\site-packages\\PyQt5\\Qt\\translations\\qtbase_fi.qm',
   'DATA'),
  ('PyQt5\\translations\\qtbase_ja.qm',
   'C:\\users\\quinlin.riggs\\source\\repos\\install_env\\lib\\site-packages\\PyQt5\\Qt\\translations\\qtbase_ja.qm',
   'DATA'),
  ('PyQt5\\translations\\qtbase_ca.qm',
   'C:\\users\\quinlin.riggs\\source\\repos\\install_env\\lib\\site-packages\\PyQt5\\Qt\\translations\\qtbase_ca.qm',
   'DATA'),
  ('PyQt5\\translations\\qtbase_pl.qm',
   'C:\\users\\quinlin.riggs\\source\\repos\\install_env\\lib\\site-packages\\PyQt5\\Qt\\translations\\qtbase_pl.qm',
   'DATA'),
  ('PyQt5\\translations\\qtbase_es.qm',
   'C:\\users\\quinlin.riggs\\source\\repos\\install_env\\lib\\site-packages\\PyQt5\\Qt\\translations\\qtbase_es.qm',
   'DATA')],
 [])
