('C:\\Users\\quinlin.riggs\\source\\repos\\product_crypt\\product_crypt\\dist\\UpdateUnitInfo.exe',
 True,
 False,
 False,
 None,
 None,
 False,
 False,
 '<?xml version="1.0" encoding="UTF-8" standalone="yes"?><assembly manifestVersion="1.0" xmlns="urn:schemas-microsoft-com:asm.v1"><assemblyIdentity name="UpdateUnitInfo" processorArchitecture="amd64" type="win32" version="1.0.0.0"/><dependency><dependentAssembly><assemblyIdentity language="*" name="Microsoft.Windows.Common-Controls" processorArchitecture="*" publicKeyToken="6595b64144ccf1df" type="win32" version="6.0.0.0"/><compatibility xmlns="urn:schemas-microsoft-com:compatibility.v1"/></dependentAssembly></dependency><compatibility xmlns="urn:schemas-microsoft-com:compatibility.v1"><application><supportedOS Id="{e2011457-1546-43c5-a5fe-008deee3d3f0}"/><supportedOS Id="{35138b9a-5d96-4fbd-8e2d-a2440225f93a}"/><supportedOS Id="{4a2f28e3-53b9-4441-ba9c-d69d4a4a6e38}"/><supportedOS Id="{1f676c76-80e1-4239-95bb-83d0f6d0da78}"/><supportedOS Id="{8e0f7a12-bfb3-4fe8-b9a5-48fd50a15a9a}"/></application></compatibility></assembly>',
 True,
 'UpdateUnitInfo.pkg',
 [('PYZ-00.pyz',
   'C:\\Users\\quinlin.riggs\\source\\repos\\product_crypt\\product_crypt\\build\\UpdateUnitInfo\\PYZ-00.pyz',
   'PYZ'),
  ('struct',
   'C:\\Users\\quinlin.riggs\\source\\repos\\product_crypt\\product_crypt\\build\\UpdateUnitInfo\\localpycos\\struct.pyo',
   'PYMODULE'),
  ('pyimod01_os_path',
   'c:\\users\\quinlin.riggs\\source\\repos\\install_env\\lib\\site-packages\\PyInstaller\\loader\\pyimod01_os_path.pyc',
   'PYMODULE'),
  ('pyimod02_archive',
   'c:\\users\\quinlin.riggs\\source\\repos\\install_env\\lib\\site-packages\\PyInstaller\\loader\\pyimod02_archive.pyc',
   'PYMODULE'),
  ('pyimod03_importers',
   'c:\\users\\quinlin.riggs\\source\\repos\\install_env\\lib\\site-packages\\PyInstaller\\loader\\pyimod03_importers.pyc',
   'PYMODULE'),
  ('pyiboot01_bootstrap',
   'c:\\users\\quinlin.riggs\\source\\repos\\install_env\\lib\\site-packages\\PyInstaller\\loader\\pyiboot01_bootstrap.py',
   'PYSOURCE'),
  ('pyi_rth_pyqt5',
   'c:\\users\\quinlin.riggs\\source\\repos\\install_env\\lib\\site-packages\\PyInstaller\\loader\\rthooks\\pyi_rth_pyqt5.py',
   'PYSOURCE'),
  ('gui',
   'C:\\Users\\quinlin.riggs\\source\\repos\\product_crypt\\product_crypt\\src\\gui.py',
   'PYSOURCE'),
  ('PyQt5\\Qt\\plugins\\imageformats\\qjpeg.dll',
   'C:\\users\\quinlin.riggs\\source\\repos\\install_env\\lib\\site-packages\\PyQt5\\Qt\\plugins\\imageformats\\qjpeg.dll',
   'BINARY'),
  ('Crypto\\Hash\\_BLAKE2s.cp37-win_amd64.pyd',
   'c:\\users\\quinlin.riggs\\source\\repos\\install_env\\lib\\site-packages\\Crypto\\Hash\\_BLAKE2s.cp37-win_amd64.pyd',
   'BINARY'),
  ('PyQt5\\Qt\\plugins\\imageformats\\qwebp.dll',
   'C:\\users\\quinlin.riggs\\source\\repos\\install_env\\lib\\site-packages\\PyQt5\\Qt\\plugins\\imageformats\\qwebp.dll',
   'BINARY'),
  ('PyQt5\\Qt\\bin\\libEGL.dll',
   'C:\\users\\quinlin.riggs\\source\\repos\\install_env\\lib\\site-packages\\PyQt5\\Qt\\bin\\libEGL.dll',
   'BINARY'),
  ('PyQt5\\Qt\\bin\\libGLESv2.dll',
   'C:\\users\\quinlin.riggs\\source\\repos\\install_env\\lib\\site-packages\\PyQt5\\Qt\\bin\\libGLESv2.dll',
   'BINARY'),
  ('Crypto\\Hash\\_SHA1.cp37-win_amd64.pyd',
   'c:\\users\\quinlin.riggs\\source\\repos\\install_env\\lib\\site-packages\\Crypto\\Hash\\_SHA1.cp37-win_amd64.pyd',
   'BINARY'),
  ('Crypto\\Hash\\_SHA224.cp37-win_amd64.pyd',
   'c:\\users\\quinlin.riggs\\source\\repos\\install_env\\lib\\site-packages\\Crypto\\Hash\\_SHA224.cp37-win_amd64.pyd',
   'BINARY'),
  ('PyQt5\\Qt\\plugins\\platforms\\qoffscreen.dll',
   'C:\\users\\quinlin.riggs\\source\\repos\\install_env\\lib\\site-packages\\PyQt5\\Qt\\plugins\\platforms\\qoffscreen.dll',
   'BINARY'),
  ('PyQt5\\Qt\\plugins\\imageformats\\qtga.dll',
   'C:\\users\\quinlin.riggs\\source\\repos\\install_env\\lib\\site-packages\\PyQt5\\Qt\\plugins\\imageformats\\qtga.dll',
   'BINARY'),
  ('PyQt5\\Qt\\plugins\\platforms\\qwebgl.dll',
   'C:\\users\\quinlin.riggs\\source\\repos\\install_env\\lib\\site-packages\\PyQt5\\Qt\\plugins\\platforms\\qwebgl.dll',
   'BINARY'),
  ('Crypto\\Cipher\\_raw_des.cp37-win_amd64.pyd',
   'c:\\users\\quinlin.riggs\\source\\repos\\install_env\\lib\\site-packages\\Crypto\\Cipher\\_raw_des.cp37-win_amd64.pyd',
   'BINARY'),
  ('Crypto\\Cipher\\_raw_des3.cp37-win_amd64.pyd',
   'c:\\users\\quinlin.riggs\\source\\repos\\install_env\\lib\\site-packages\\Crypto\\Cipher\\_raw_des3.cp37-win_amd64.pyd',
   'BINARY'),
  ('Crypto\\Util\\_strxor.cp37-win_amd64.pyd',
   'c:\\users\\quinlin.riggs\\source\\repos\\install_env\\lib\\site-packages\\Crypto\\Util\\_strxor.cp37-win_amd64.pyd',
   'BINARY'),
  ('Crypto\\Util\\_cpuid_c.cp37-win_amd64.pyd',
   'c:\\users\\quinlin.riggs\\source\\repos\\install_env\\lib\\site-packages\\Crypto\\Util\\_cpuid_c.cp37-win_amd64.pyd',
   'BINARY'),
  ('Crypto\\Cipher\\_ARC4.cp37-win_amd64.pyd',
   'c:\\users\\quinlin.riggs\\source\\repos\\install_env\\lib\\site-packages\\Crypto\\Cipher\\_ARC4.cp37-win_amd64.pyd',
   'BINARY'),
  ('Crypto\\Hash\\_MD2.cp37-win_amd64.pyd',
   'c:\\users\\quinlin.riggs\\source\\repos\\install_env\\lib\\site-packages\\Crypto\\Hash\\_MD2.cp37-win_amd64.pyd',
   'BINARY'),
  ('Crypto\\Cipher\\_raw_ctr.cp37-win_amd64.pyd',
   'c:\\users\\quinlin.riggs\\source\\repos\\install_env\\lib\\site-packages\\Crypto\\Cipher\\_raw_ctr.cp37-win_amd64.pyd',
   'BINARY'),
  ('Crypto\\Hash\\_BLAKE2b.cp37-win_amd64.pyd',
   'c:\\users\\quinlin.riggs\\source\\repos\\install_env\\lib\\site-packages\\Crypto\\Hash\\_BLAKE2b.cp37-win_amd64.pyd',
   'BINARY'),
  ('PyQt5\\Qt\\plugins\\imageformats\\qsvg.dll',
   'C:\\users\\quinlin.riggs\\source\\repos\\install_env\\lib\\site-packages\\PyQt5\\Qt\\plugins\\imageformats\\qsvg.dll',
   'BINARY'),
  ('Crypto\\Cipher\\_chacha20.cp37-win_amd64.pyd',
   'c:\\users\\quinlin.riggs\\source\\repos\\install_env\\lib\\site-packages\\Crypto\\Cipher\\_chacha20.cp37-win_amd64.pyd',
   'BINARY'),
  ('Crypto\\Cipher\\_raw_cast.cp37-win_amd64.pyd',
   'c:\\users\\quinlin.riggs\\source\\repos\\install_env\\lib\\site-packages\\Crypto\\Cipher\\_raw_cast.cp37-win_amd64.pyd',
   'BINARY'),
  ('Crypto\\Hash\\_ghash_clmul.cp37-win_amd64.pyd',
   'c:\\users\\quinlin.riggs\\source\\repos\\install_env\\lib\\site-packages\\Crypto\\Hash\\_ghash_clmul.cp37-win_amd64.pyd',
   'BINARY'),
  ('Crypto\\Hash\\_ghash_portable.cp37-win_amd64.pyd',
   'c:\\users\\quinlin.riggs\\source\\repos\\install_env\\lib\\site-packages\\Crypto\\Hash\\_ghash_portable.cp37-win_amd64.pyd',
   'BINARY'),
  ('Crypto\\Protocol\\_scrypt.cp37-win_amd64.pyd',
   'c:\\users\\quinlin.riggs\\source\\repos\\install_env\\lib\\site-packages\\Crypto\\Protocol\\_scrypt.cp37-win_amd64.pyd',
   'BINARY'),
  ('PyQt5\\Qt\\plugins\\platforms\\qwindows.dll',
   'C:\\users\\quinlin.riggs\\source\\repos\\install_env\\lib\\site-packages\\PyQt5\\Qt\\plugins\\platforms\\qwindows.dll',
   'BINARY'),
  ('Crypto\\Hash\\_SHA512.cp37-win_amd64.pyd',
   'c:\\users\\quinlin.riggs\\source\\repos\\install_env\\lib\\site-packages\\Crypto\\Hash\\_SHA512.cp37-win_amd64.pyd',
   'BINARY'),
  ('PyQt5\\Qt\\plugins\\imageformats\\qico.dll',
   'C:\\users\\quinlin.riggs\\source\\repos\\install_env\\lib\\site-packages\\PyQt5\\Qt\\plugins\\imageformats\\qico.dll',
   'BINARY'),
  ('PyQt5\\Qt\\plugins\\platformthemes\\qxdgdesktopportal.dll',
   'C:\\users\\quinlin.riggs\\source\\repos\\install_env\\lib\\site-packages\\PyQt5\\Qt\\plugins\\platformthemes\\qxdgdesktopportal.dll',
   'BINARY'),
  ('Crypto\\Cipher\\_Salsa20.cp37-win_amd64.pyd',
   'c:\\users\\quinlin.riggs\\source\\repos\\install_env\\lib\\site-packages\\Crypto\\Cipher\\_Salsa20.cp37-win_amd64.pyd',
   'BINARY'),
  ('Crypto\\Cipher\\_raw_ofb.cp37-win_amd64.pyd',
   'c:\\users\\quinlin.riggs\\source\\repos\\install_env\\lib\\site-packages\\Crypto\\Cipher\\_raw_ofb.cp37-win_amd64.pyd',
   'BINARY'),
  ('Crypto\\Hash\\_MD5.cp37-win_amd64.pyd',
   'c:\\users\\quinlin.riggs\\source\\repos\\install_env\\lib\\site-packages\\Crypto\\Hash\\_MD5.cp37-win_amd64.pyd',
   'BINARY'),
  ('Crypto\\Hash\\_MD4.cp37-win_amd64.pyd',
   'c:\\users\\quinlin.riggs\\source\\repos\\install_env\\lib\\site-packages\\Crypto\\Hash\\_MD4.cp37-win_amd64.pyd',
   'BINARY'),
  ('PyQt5\\Qt\\bin\\d3dcompiler_47.dll',
   'C:\\users\\quinlin.riggs\\source\\repos\\install_env\\lib\\site-packages\\PyQt5\\Qt\\bin\\d3dcompiler_47.dll',
   'BINARY'),
  ('Crypto\\Hash\\_RIPEMD160.cp37-win_amd64.pyd',
   'c:\\users\\quinlin.riggs\\source\\repos\\install_env\\lib\\site-packages\\Crypto\\Hash\\_RIPEMD160.cp37-win_amd64.pyd',
   'BINARY'),
  ('Crypto\\Cipher\\_raw_aesni.cp37-win_amd64.pyd',
   'c:\\users\\quinlin.riggs\\source\\repos\\install_env\\lib\\site-packages\\Crypto\\Cipher\\_raw_aesni.cp37-win_amd64.pyd',
   'BINARY'),
  ('Crypto\\Cipher\\_raw_ecb.cp37-win_amd64.pyd',
   'c:\\users\\quinlin.riggs\\source\\repos\\install_env\\lib\\site-packages\\Crypto\\Cipher\\_raw_ecb.cp37-win_amd64.pyd',
   'BINARY'),
  ('PyQt5\\Qt\\plugins\\iconengines\\qsvgicon.dll',
   'C:\\users\\quinlin.riggs\\source\\repos\\install_env\\lib\\site-packages\\PyQt5\\Qt\\plugins\\iconengines\\qsvgicon.dll',
   'BINARY'),
  ('PyQt5\\Qt\\plugins\\platforms\\qminimal.dll',
   'C:\\users\\quinlin.riggs\\source\\repos\\install_env\\lib\\site-packages\\PyQt5\\Qt\\plugins\\platforms\\qminimal.dll',
   'BINARY'),
  ('Crypto\\Hash\\_SHA384.cp37-win_amd64.pyd',
   'c:\\users\\quinlin.riggs\\source\\repos\\install_env\\lib\\site-packages\\Crypto\\Hash\\_SHA384.cp37-win_amd64.pyd',
   'BINARY'),
  ('Crypto\\Cipher\\_raw_ocb.cp37-win_amd64.pyd',
   'c:\\users\\quinlin.riggs\\source\\repos\\install_env\\lib\\site-packages\\Crypto\\Cipher\\_raw_ocb.cp37-win_amd64.pyd',
   'BINARY'),
  ('Crypto\\Hash\\_poly1305.cp37-win_amd64.pyd',
   'c:\\users\\quinlin.riggs\\source\\repos\\install_env\\lib\\site-packages\\Crypto\\Hash\\_poly1305.cp37-win_amd64.pyd',
   'BINARY'),
  ('PyQt5\\Qt\\plugins\\imageformats\\qgif.dll',
   'C:\\users\\quinlin.riggs\\source\\repos\\install_env\\lib\\site-packages\\PyQt5\\Qt\\plugins\\imageformats\\qgif.dll',
   'BINARY'),
  ('Crypto\\Cipher\\_raw_cbc.cp37-win_amd64.pyd',
   'c:\\users\\quinlin.riggs\\source\\repos\\install_env\\lib\\site-packages\\Crypto\\Cipher\\_raw_cbc.cp37-win_amd64.pyd',
   'BINARY'),
  ('Crypto\\Cipher\\_raw_blowfish.cp37-win_amd64.pyd',
   'c:\\users\\quinlin.riggs\\source\\repos\\install_env\\lib\\site-packages\\Crypto\\Cipher\\_raw_blowfish.cp37-win_amd64.pyd',
   'BINARY'),
  ('Crypto\\Cipher\\_raw_eksblowfish.cp37-win_amd64.pyd',
   'c:\\users\\quinlin.riggs\\source\\repos\\install_env\\lib\\site-packages\\Crypto\\Cipher\\_raw_eksblowfish.cp37-win_amd64.pyd',
   'BINARY'),
  ('PyQt5\\Qt\\plugins\\imageformats\\qicns.dll',
   'C:\\users\\quinlin.riggs\\source\\repos\\install_env\\lib\\site-packages\\PyQt5\\Qt\\plugins\\imageformats\\qicns.dll',
   'BINARY'),
  ('PyQt5\\Qt\\plugins\\styles\\qwindowsvistastyle.dll',
   'C:\\users\\quinlin.riggs\\source\\repos\\install_env\\lib\\site-packages\\PyQt5\\Qt\\plugins\\styles\\qwindowsvistastyle.dll',
   'BINARY'),
  ('Crypto\\Hash\\_keccak.cp37-win_amd64.pyd',
   'c:\\users\\quinlin.riggs\\source\\repos\\install_env\\lib\\site-packages\\Crypto\\Hash\\_keccak.cp37-win_amd64.pyd',
   'BINARY'),
  ('PyQt5\\Qt\\plugins\\imageformats\\qtiff.dll',
   'C:\\users\\quinlin.riggs\\source\\repos\\install_env\\lib\\site-packages\\PyQt5\\Qt\\plugins\\imageformats\\qtiff.dll',
   'BINARY'),
  ('Crypto\\Math\\_modexp.cp37-win_amd64.pyd',
   'c:\\users\\quinlin.riggs\\source\\repos\\install_env\\lib\\site-packages\\Crypto\\Math\\_modexp.cp37-win_amd64.pyd',
   'BINARY'),
  ('PyQt5\\Qt\\plugins\\imageformats\\qwbmp.dll',
   'C:\\users\\quinlin.riggs\\source\\repos\\install_env\\lib\\site-packages\\PyQt5\\Qt\\plugins\\imageformats\\qwbmp.dll',
   'BINARY'),
  ('Crypto\\Cipher\\_raw_arc2.cp37-win_amd64.pyd',
   'c:\\users\\quinlin.riggs\\source\\repos\\install_env\\lib\\site-packages\\Crypto\\Cipher\\_raw_arc2.cp37-win_amd64.pyd',
   'BINARY'),
  ('Crypto\\PublicKey\\_ec_ws.cp37-win_amd64.pyd',
   'c:\\users\\quinlin.riggs\\source\\repos\\install_env\\lib\\site-packages\\Crypto\\PublicKey\\_ec_ws.cp37-win_amd64.pyd',
   'BINARY'),
  ('PyQt5\\Qt\\bin\\opengl32sw.dll',
   'C:\\users\\quinlin.riggs\\source\\repos\\install_env\\lib\\site-packages\\PyQt5\\Qt\\bin\\opengl32sw.dll',
   'BINARY'),
  ('Crypto\\Cipher\\_raw_cfb.cp37-win_amd64.pyd',
   'c:\\users\\quinlin.riggs\\source\\repos\\install_env\\lib\\site-packages\\Crypto\\Cipher\\_raw_cfb.cp37-win_amd64.pyd',
   'BINARY'),
  ('Crypto\\Cipher\\_raw_aes.cp37-win_amd64.pyd',
   'c:\\users\\quinlin.riggs\\source\\repos\\install_env\\lib\\site-packages\\Crypto\\Cipher\\_raw_aes.cp37-win_amd64.pyd',
   'BINARY'),
  ('Crypto\\Hash\\_SHA256.cp37-win_amd64.pyd',
   'c:\\users\\quinlin.riggs\\source\\repos\\install_env\\lib\\site-packages\\Crypto\\Hash\\_SHA256.cp37-win_amd64.pyd',
   'BINARY'),
  ('_ssl',
   'C:\\Program Files (x86)\\Microsoft Visual '
   'Studio\\Shared\\Python37_64\\DLLs\\_ssl.pyd',
   'EXTENSION'),
  ('pyexpat',
   'C:\\Program Files (x86)\\Microsoft Visual '
   'Studio\\Shared\\Python37_64\\DLLs\\pyexpat.pyd',
   'EXTENSION'),
  ('unicodedata',
   'C:\\Program Files (x86)\\Microsoft Visual '
   'Studio\\Shared\\Python37_64\\DLLs\\unicodedata.pyd',
   'EXTENSION'),
  ('_hashlib',
   'C:\\Program Files (x86)\\Microsoft Visual '
   'Studio\\Shared\\Python37_64\\DLLs\\_hashlib.pyd',
   'EXTENSION'),
  ('_bz2',
   'C:\\Program Files (x86)\\Microsoft Visual '
   'Studio\\Shared\\Python37_64\\DLLs\\_bz2.pyd',
   'EXTENSION'),
  ('_lzma',
   'C:\\Program Files (x86)\\Microsoft Visual '
   'Studio\\Shared\\Python37_64\\DLLs\\_lzma.pyd',
   'EXTENSION'),
  ('_socket',
   'C:\\Program Files (x86)\\Microsoft Visual '
   'Studio\\Shared\\Python37_64\\DLLs\\_socket.pyd',
   'EXTENSION'),
  ('select',
   'C:\\Program Files (x86)\\Microsoft Visual '
   'Studio\\Shared\\Python37_64\\DLLs\\select.pyd',
   'EXTENSION'),
  ('PyQt5.QtWidgets',
   'c:\\users\\quinlin.riggs\\source\\repos\\install_env\\lib\\site-packages\\PyQt5\\QtWidgets.pyd',
   'EXTENSION'),
  ('PyQt5.QtCore',
   'c:\\users\\quinlin.riggs\\source\\repos\\install_env\\lib\\site-packages\\PyQt5\\QtCore.pyd',
   'EXTENSION'),
  ('PyQt5.QtGui',
   'c:\\users\\quinlin.riggs\\source\\repos\\install_env\\lib\\site-packages\\PyQt5\\QtGui.pyd',
   'EXTENSION'),
  ('PyQt5.sip',
   'c:\\users\\quinlin.riggs\\source\\repos\\install_env\\lib\\site-packages\\PyQt5\\sip.pyd',
   'EXTENSION'),
  ('_ctypes',
   'C:\\Program Files (x86)\\Microsoft Visual '
   'Studio\\Shared\\Python37_64\\DLLs\\_ctypes.pyd',
   'EXTENSION'),
  ('_elementtree',
   'C:\\Program Files (x86)\\Microsoft Visual '
   'Studio\\Shared\\Python37_64\\DLLs\\_elementtree.pyd',
   'EXTENSION'),
  ('api-ms-win-crt-heap-l1-1-0.dll',
   'C:\\Program Files\\Mozilla Firefox\\api-ms-win-crt-heap-l1-1-0.dll',
   'BINARY'),
  ('api-ms-win-crt-runtime-l1-1-0.dll',
   'C:\\Program Files\\Mozilla Firefox\\api-ms-win-crt-runtime-l1-1-0.dll',
   'BINARY'),
  ('api-ms-win-crt-math-l1-1-0.dll',
   'C:\\Program Files\\Mozilla Firefox\\api-ms-win-crt-math-l1-1-0.dll',
   'BINARY'),
  ('api-ms-win-crt-environment-l1-1-0.dll',
   'C:\\Program Files\\Mozilla Firefox\\api-ms-win-crt-environment-l1-1-0.dll',
   'BINARY'),
  ('Qt5Core.dll',
   'c:\\users\\quinlin.riggs\\source\\repos\\install_env\\lib\\site-packages\\PyQt5\\Qt\\bin\\qt5core.dll',
   'BINARY'),
  ('Qt5Gui.dll',
   'c:\\users\\quinlin.riggs\\source\\repos\\install_env\\lib\\site-packages\\PyQt5\\Qt\\bin\\qt5gui.dll',
   'BINARY'),
  ('api-ms-win-crt-stdio-l1-1-0.dll',
   'C:\\Program Files\\Mozilla Firefox\\api-ms-win-crt-stdio-l1-1-0.dll',
   'BINARY'),
  ('VCRUNTIME140.dll',
   'C:\\Program Files (x86)\\Microsoft Visual '
   'Studio\\Shared\\Python37_64\\vcruntime140.dll',
   'BINARY'),
  ('api-ms-win-crt-utility-l1-1-0.dll',
   'C:\\Program Files\\Mozilla Firefox\\api-ms-win-crt-utility-l1-1-0.dll',
   'BINARY'),
  ('libGLESv2.dll',
   'C:\\users\\quinlin.riggs\\source\\repos\\install_env\\lib\\site-packages\\PyQt5\\Qt\\bin\\libGLESv2.dll',
   'BINARY'),
  ('api-ms-win-crt-string-l1-1-0.dll',
   'C:\\Program Files\\Mozilla Firefox\\api-ms-win-crt-string-l1-1-0.dll',
   'BINARY'),
  ('MSVCP140.dll',
   'C:\\users\\quinlin.riggs\\source\\repos\\install_env\\lib\\site-packages\\PyQt5\\Qt\\bin\\MSVCP140.dll',
   'BINARY'),
  ('api-ms-win-crt-convert-l1-1-0.dll',
   'C:\\Program Files\\Mozilla Firefox\\api-ms-win-crt-convert-l1-1-0.dll',
   'BINARY'),
  ('Qt5Network.dll',
   'c:\\users\\quinlin.riggs\\source\\repos\\install_env\\lib\\site-packages\\PyQt5\\Qt\\bin\\qt5network.dll',
   'BINARY'),
  ('Qt5WebSockets.dll',
   'c:\\users\\quinlin.riggs\\source\\repos\\install_env\\lib\\site-packages\\PyQt5\\Qt\\bin\\qt5websockets.dll',
   'BINARY'),
  ('Qt5Quick.dll',
   'c:\\users\\quinlin.riggs\\source\\repos\\install_env\\lib\\site-packages\\PyQt5\\Qt\\bin\\qt5quick.dll',
   'BINARY'),
  ('Qt5Svg.dll',
   'c:\\users\\quinlin.riggs\\source\\repos\\install_env\\lib\\site-packages\\PyQt5\\Qt\\bin\\qt5svg.dll',
   'BINARY'),
  ('Qt5DBus.dll',
   'c:\\users\\quinlin.riggs\\source\\repos\\install_env\\lib\\site-packages\\PyQt5\\Qt\\bin\\qt5dbus.dll',
   'BINARY'),
  ('Qt5Widgets.dll',
   'c:\\users\\quinlin.riggs\\source\\repos\\install_env\\lib\\site-packages\\PyQt5\\Qt\\bin\\qt5widgets.dll',
   'BINARY'),
  ('libcrypto-1_1.dll',
   'C:\\Program Files (x86)\\Microsoft Visual '
   'Studio\\Shared\\Python37_64\\DLLs\\libcrypto-1_1.dll',
   'BINARY'),
  ('python37.dll',
   'C:\\Program Files (x86)\\Microsoft Visual '
   'Studio\\Shared\\Python37_64\\python37.dll',
   'BINARY'),
  ('libssl-1_1.dll',
   'C:\\Program Files (x86)\\Microsoft Visual '
   'Studio\\Shared\\Python37_64\\DLLs\\libssl-1_1.dll',
   'BINARY'),
  ('python3.dll',
   'C:\\Program Files (x86)\\Microsoft Visual '
   'Studio\\Shared\\Python37_64\\python3.dll',
   'BINARY'),
  ('ucrtbase.dll',
   'C:\\Program Files\\Mozilla Firefox\\ucrtbase.dll',
   'BINARY'),
  ('api-ms-win-crt-filesystem-l1-1-0.dll',
   'C:\\Program Files\\Mozilla Firefox\\api-ms-win-crt-filesystem-l1-1-0.dll',
   'BINARY'),
  ('api-ms-win-crt-time-l1-1-0.dll',
   'C:\\Program Files\\Mozilla Firefox\\api-ms-win-crt-time-l1-1-0.dll',
   'BINARY'),
  ('api-ms-win-crt-locale-l1-1-0.dll',
   'C:\\Program Files\\Mozilla Firefox\\api-ms-win-crt-locale-l1-1-0.dll',
   'BINARY'),
  ('api-ms-win-crt-multibyte-l1-1-0.dll',
   'C:\\Program Files\\Mozilla Firefox\\api-ms-win-crt-multibyte-l1-1-0.dll',
   'BINARY'),
  ('Qt5Qml.dll',
   'c:\\users\\quinlin.riggs\\source\\repos\\install_env\\lib\\site-packages\\PyQt5\\Qt\\bin\\Qt5Qml.dll',
   'BINARY'),
  ('api-ms-win-crt-process-l1-1-0.dll',
   'C:\\Program Files\\Mozilla Firefox\\api-ms-win-crt-process-l1-1-0.dll',
   'BINARY'),
  ('api-ms-win-crt-conio-l1-1-0.dll',
   'C:\\Program Files\\Mozilla Firefox\\api-ms-win-crt-conio-l1-1-0.dll',
   'BINARY'),
  ('api-ms-win-core-file-l1-2-0.dll',
   'C:\\Program Files\\Mozilla Firefox\\api-ms-win-core-file-l1-2-0.dll',
   'BINARY'),
  ('api-ms-win-core-localization-l1-2-0.dll',
   'C:\\Program Files\\Mozilla '
   'Firefox\\api-ms-win-core-localization-l1-2-0.dll',
   'BINARY'),
  ('api-ms-win-core-processthreads-l1-1-1.dll',
   'C:\\Program Files\\Mozilla '
   'Firefox\\api-ms-win-core-processthreads-l1-1-1.dll',
   'BINARY'),
  ('api-ms-win-core-timezone-l1-1-0.dll',
   'C:\\Program Files\\Mozilla Firefox\\api-ms-win-core-timezone-l1-1-0.dll',
   'BINARY'),
  ('api-ms-win-core-synch-l1-2-0.dll',
   'C:\\Program Files\\Mozilla Firefox\\api-ms-win-core-synch-l1-2-0.dll',
   'BINARY'),
  ('api-ms-win-core-file-l2-1-0.dll',
   'C:\\Program Files\\Mozilla Firefox\\api-ms-win-core-file-l2-1-0.dll',
   'BINARY'),
  ('base_library.zip',
   'C:\\Users\\quinlin.riggs\\source\\repos\\product_crypt\\product_crypt\\build\\UpdateUnitInfo\\base_library.zip',
   'DATA'),
  ('PyQt5\\translations\\qtbase_bg.qm',
   'C:\\users\\quinlin.riggs\\source\\repos\\install_env\\lib\\site-packages\\PyQt5\\Qt\\translations\\qtbase_bg.qm',
   'DATA'),
  ('PyQt5\\translations\\qtbase_da.qm',
   'C:\\users\\quinlin.riggs\\source\\repos\\install_env\\lib\\site-packages\\PyQt5\\Qt\\translations\\qtbase_da.qm',
   'DATA'),
  ('PyQt5\\translations\\qtbase_fr.qm',
   'C:\\users\\quinlin.riggs\\source\\repos\\install_env\\lib\\site-packages\\PyQt5\\Qt\\translations\\qtbase_fr.qm',
   'DATA'),
  ('PyQt5\\translations\\qtbase_ru.qm',
   'C:\\users\\quinlin.riggs\\source\\repos\\install_env\\lib\\site-packages\\PyQt5\\Qt\\translations\\qtbase_ru.qm',
   'DATA'),
  ('PyQt5\\translations\\qtbase_sk.qm',
   'C:\\users\\quinlin.riggs\\source\\repos\\install_env\\lib\\site-packages\\PyQt5\\Qt\\translations\\qtbase_sk.qm',
   'DATA'),
  ('PyQt5\\translations\\qtbase_uk.qm',
   'C:\\users\\quinlin.riggs\\source\\repos\\install_env\\lib\\site-packages\\PyQt5\\Qt\\translations\\qtbase_uk.qm',
   'DATA'),
  ('PyQt5\\translations\\qtbase_hu.qm',
   'C:\\users\\quinlin.riggs\\source\\repos\\install_env\\lib\\site-packages\\PyQt5\\Qt\\translations\\qtbase_hu.qm',
   'DATA'),
  ('PyQt5\\translations\\qtbase_de.qm',
   'C:\\users\\quinlin.riggs\\source\\repos\\install_env\\lib\\site-packages\\PyQt5\\Qt\\translations\\qtbase_de.qm',
   'DATA'),
  ('PyQt5\\translations\\qtbase_gd.qm',
   'C:\\users\\quinlin.riggs\\source\\repos\\install_env\\lib\\site-packages\\PyQt5\\Qt\\translations\\qtbase_gd.qm',
   'DATA'),
  ('PyQt5\\translations\\qtbase_ko.qm',
   'C:\\users\\quinlin.riggs\\source\\repos\\install_env\\lib\\site-packages\\PyQt5\\Qt\\translations\\qtbase_ko.qm',
   'DATA'),
  ('PyQt5\\translations\\qtbase_zh_TW.qm',
   'C:\\users\\quinlin.riggs\\source\\repos\\install_env\\lib\\site-packages\\PyQt5\\Qt\\translations\\qtbase_zh_TW.qm',
   'DATA'),
  ('PyQt5\\translations\\qtbase_cs.qm',
   'C:\\users\\quinlin.riggs\\source\\repos\\install_env\\lib\\site-packages\\PyQt5\\Qt\\translations\\qtbase_cs.qm',
   'DATA'),
  ('PyQt5\\translations\\qtbase_lv.qm',
   'C:\\users\\quinlin.riggs\\source\\repos\\install_env\\lib\\site-packages\\PyQt5\\Qt\\translations\\qtbase_lv.qm',
   'DATA'),
  ('PyQt5\\translations\\qtbase_he.qm',
   'C:\\users\\quinlin.riggs\\source\\repos\\install_env\\lib\\site-packages\\PyQt5\\Qt\\translations\\qtbase_he.qm',
   'DATA'),
  ('PyQt5\\translations\\qtbase_ar.qm',
   'C:\\users\\quinlin.riggs\\source\\repos\\install_env\\lib\\site-packages\\PyQt5\\Qt\\translations\\qtbase_ar.qm',
   'DATA'),
  ('PyQt5\\translations\\qtbase_it.qm',
   'C:\\users\\quinlin.riggs\\source\\repos\\install_env\\lib\\site-packages\\PyQt5\\Qt\\translations\\qtbase_it.qm',
   'DATA'),
  ('PyQt5\\translations\\qtbase_en.qm',
   'C:\\users\\quinlin.riggs\\source\\repos\\install_env\\lib\\site-packages\\PyQt5\\Qt\\translations\\qtbase_en.qm',
   'DATA'),
  ('PyQt5\\translations\\qtbase_fi.qm',
   'C:\\users\\quinlin.riggs\\source\\repos\\install_env\\lib\\site-packages\\PyQt5\\Qt\\translations\\qtbase_fi.qm',
   'DATA'),
  ('PyQt5\\translations\\qtbase_ja.qm',
   'C:\\users\\quinlin.riggs\\source\\repos\\install_env\\lib\\site-packages\\PyQt5\\Qt\\translations\\qtbase_ja.qm',
   'DATA'),
  ('PyQt5\\translations\\qtbase_ca.qm',
   'C:\\users\\quinlin.riggs\\source\\repos\\install_env\\lib\\site-packages\\PyQt5\\Qt\\translations\\qtbase_ca.qm',
   'DATA'),
  ('PyQt5\\translations\\qtbase_pl.qm',
   'C:\\users\\quinlin.riggs\\source\\repos\\install_env\\lib\\site-packages\\PyQt5\\Qt\\translations\\qtbase_pl.qm',
   'DATA'),
  ('PyQt5\\translations\\qtbase_es.qm',
   'C:\\users\\quinlin.riggs\\source\\repos\\install_env\\lib\\site-packages\\PyQt5\\Qt\\translations\\qtbase_es.qm',
   'DATA'),
  ('UpdateUnitInfo.exe.manifest',
   'C:\\Users\\quinlin.riggs\\source\\repos\\product_crypt\\product_crypt\\build\\UpdateUnitInfo\\UpdateUnitInfo.exe.manifest',
   'BINARY'),
  ('pyi-windows-manifest-filename UpdateUnitInfo.exe.manifest', '', 'OPTION')],
 [],
 False,
 False,
 1571158880,
 [('run.exe',
   'c:\\users\\quinlin.riggs\\source\\repos\\install_env\\lib\\site-packages\\PyInstaller\\bootloader\\Windows-64bit\\run.exe',
   'EXECUTABLE')])
