('C:\\Users\\quinlin.riggs\\source\\repos\\product_crypt\\product_crypt\\build\\UpdateUnitInfo\\PYZ-00.pyz',
 [('ntpath',
   'C:\\Program Files (x86)\\Microsoft Visual '
   'Studio\\Shared\\Python37_64\\lib\\ntpath.py',
   'PYMODULE'),
  ('_strptime',
   'C:\\Program Files (x86)\\Microsoft Visual '
   'Studio\\Shared\\Python37_64\\lib\\_strptime.py',
   'PYMODULE'),
  ('datetime',
   'C:\\Program Files (x86)\\Microsoft Visual '
   'Studio\\Shared\\Python37_64\\lib\\datetime.py',
   'PYMODULE'),
  ('_py_abc',
   'C:\\Program Files (x86)\\Microsoft Visual '
   'Studio\\Shared\\Python37_64\\lib\\_py_abc.py',
   'PYMODULE'),
  ('typing',
   'C:\\Program Files (x86)\\Microsoft Visual '
   'Studio\\Shared\\Python37_64\\lib\\typing.py',
   'PYMODULE'),
  ('stringprep',
   'C:\\Program Files (x86)\\Microsoft Visual '
   'Studio\\Shared\\Python37_64\\lib\\stringprep.py',
   'PYMODULE'),
  ('fnmatch',
   'C:\\Program Files (x86)\\Microsoft Visual '
   'Studio\\Shared\\Python37_64\\lib\\fnmatch.py',
   'PYMODULE'),
  ('struct',
   'C:\\Program Files (x86)\\Microsoft Visual '
   'Studio\\Shared\\Python37_64\\lib\\struct.py',
   'PYMODULE'),
  ('_compat_pickle',
   'C:\\Program Files (x86)\\Microsoft Visual '
   'Studio\\Shared\\Python37_64\\lib\\_compat_pickle.py',
   'PYMODULE'),
  ('__future__',
   'C:\\Program Files (x86)\\Microsoft Visual '
   'Studio\\Shared\\Python37_64\\lib\\__future__.py',
   'PYMODULE'),
  ('difflib',
   'C:\\Program Files (x86)\\Microsoft Visual '
   'Studio\\Shared\\Python37_64\\lib\\difflib.py',
   'PYMODULE'),
  ('ast',
   'C:\\Program Files (x86)\\Microsoft Visual '
   'Studio\\Shared\\Python37_64\\lib\\ast.py',
   'PYMODULE'),
  ('inspect',
   'C:\\Program Files (x86)\\Microsoft Visual '
   'Studio\\Shared\\Python37_64\\lib\\inspect.py',
   'PYMODULE'),
  ('cmd',
   'C:\\Program Files (x86)\\Microsoft Visual '
   'Studio\\Shared\\Python37_64\\lib\\cmd.py',
   'PYMODULE'),
  ('bdb',
   'C:\\Program Files (x86)\\Microsoft Visual '
   'Studio\\Shared\\Python37_64\\lib\\bdb.py',
   'PYMODULE'),
  ('opcode',
   'C:\\Program Files (x86)\\Microsoft Visual '
   'Studio\\Shared\\Python37_64\\lib\\opcode.py',
   'PYMODULE'),
  ('dis',
   'C:\\Program Files (x86)\\Microsoft Visual '
   'Studio\\Shared\\Python37_64\\lib\\dis.py',
   'PYMODULE'),
  ('codeop',
   'C:\\Program Files (x86)\\Microsoft Visual '
   'Studio\\Shared\\Python37_64\\lib\\codeop.py',
   'PYMODULE'),
  ('code',
   'C:\\Program Files (x86)\\Microsoft Visual '
   'Studio\\Shared\\Python37_64\\lib\\code.py',
   'PYMODULE'),
  ('glob',
   'C:\\Program Files (x86)\\Microsoft Visual '
   'Studio\\Shared\\Python37_64\\lib\\glob.py',
   'PYMODULE'),
  ('shlex',
   'C:\\Program Files (x86)\\Microsoft Visual '
   'Studio\\Shared\\Python37_64\\lib\\shlex.py',
   'PYMODULE'),
  ('runpy',
   'C:\\Program Files (x86)\\Microsoft Visual '
   'Studio\\Shared\\Python37_64\\lib\\runpy.py',
   'PYMODULE'),
  ('importlib._bootstrap',
   'C:\\Program Files (x86)\\Microsoft Visual '
   'Studio\\Shared\\Python37_64\\lib\\importlib\\_bootstrap.py',
   'PYMODULE'),
  ('importlib._bootstrap_external',
   'C:\\Program Files (x86)\\Microsoft Visual '
   'Studio\\Shared\\Python37_64\\lib\\importlib\\_bootstrap_external.py',
   'PYMODULE'),
  ('importlib.machinery',
   'C:\\Program Files (x86)\\Microsoft Visual '
   'Studio\\Shared\\Python37_64\\lib\\importlib\\machinery.py',
   'PYMODULE'),
  ('importlib.util',
   'C:\\Program Files (x86)\\Microsoft Visual '
   'Studio\\Shared\\Python37_64\\lib\\importlib\\util.py',
   'PYMODULE'),
  ('importlib.abc',
   'C:\\Program Files (x86)\\Microsoft Visual '
   'Studio\\Shared\\Python37_64\\lib\\importlib\\abc.py',
   'PYMODULE'),
  ('importlib',
   'C:\\Program Files (x86)\\Microsoft Visual '
   'Studio\\Shared\\Python37_64\\lib\\importlib\\__init__.py',
   'PYMODULE'),
  ('pkgutil',
   'C:\\Program Files (x86)\\Microsoft Visual '
   'Studio\\Shared\\Python37_64\\lib\\pkgutil.py',
   'PYMODULE'),
  ('xml',
   'C:\\Program Files (x86)\\Microsoft Visual '
   'Studio\\Shared\\Python37_64\\lib\\xml\\__init__.py',
   'PYMODULE'),
  ('xml.sax.expatreader',
   'C:\\Program Files (x86)\\Microsoft Visual '
   'Studio\\Shared\\Python37_64\\lib\\xml\\sax\\expatreader.py',
   'PYMODULE'),
  ('xml.sax.saxutils',
   'C:\\Program Files (x86)\\Microsoft Visual '
   'Studio\\Shared\\Python37_64\\lib\\xml\\sax\\saxutils.py',
   'PYMODULE'),
  ('urllib.request',
   'C:\\Program Files (x86)\\Microsoft Visual '
   'Studio\\Shared\\Python37_64\\lib\\urllib\\request.py',
   'PYMODULE'),
  ('getpass',
   'C:\\Program Files (x86)\\Microsoft Visual '
   'Studio\\Shared\\Python37_64\\lib\\getpass.py',
   'PYMODULE'),
  ('nturl2path',
   'C:\\Program Files (x86)\\Microsoft Visual '
   'Studio\\Shared\\Python37_64\\lib\\nturl2path.py',
   'PYMODULE'),
  ('ftplib',
   'C:\\Program Files (x86)\\Microsoft Visual '
   'Studio\\Shared\\Python37_64\\lib\\ftplib.py',
   'PYMODULE'),
  ('netrc',
   'C:\\Program Files (x86)\\Microsoft Visual '
   'Studio\\Shared\\Python37_64\\lib\\netrc.py',
   'PYMODULE'),
  ('http.cookiejar',
   'C:\\Program Files (x86)\\Microsoft Visual '
   'Studio\\Shared\\Python37_64\\lib\\http\\cookiejar.py',
   'PYMODULE'),
  ('urllib.response',
   'C:\\Program Files (x86)\\Microsoft Visual '
   'Studio\\Shared\\Python37_64\\lib\\urllib\\response.py',
   'PYMODULE'),
  ('urllib.error',
   'C:\\Program Files (x86)\\Microsoft Visual '
   'Studio\\Shared\\Python37_64\\lib\\urllib\\error.py',
   'PYMODULE'),
  ('xml.sax',
   'C:\\Program Files (x86)\\Microsoft Visual '
   'Studio\\Shared\\Python37_64\\lib\\xml\\sax\\__init__.py',
   'PYMODULE'),
  ('xml.sax.handler',
   'C:\\Program Files (x86)\\Microsoft Visual '
   'Studio\\Shared\\Python37_64\\lib\\xml\\sax\\handler.py',
   'PYMODULE'),
  ('xml.sax._exceptions',
   'C:\\Program Files (x86)\\Microsoft Visual '
   'Studio\\Shared\\Python37_64\\lib\\xml\\sax\\_exceptions.py',
   'PYMODULE'),
  ('xml.sax.xmlreader',
   'C:\\Program Files (x86)\\Microsoft Visual '
   'Studio\\Shared\\Python37_64\\lib\\xml\\sax\\xmlreader.py',
   'PYMODULE'),
  ('xml.parsers',
   'C:\\Program Files (x86)\\Microsoft Visual '
   'Studio\\Shared\\Python37_64\\lib\\xml\\parsers\\__init__.py',
   'PYMODULE'),
  ('xml.parsers.expat',
   'C:\\Program Files (x86)\\Microsoft Visual '
   'Studio\\Shared\\Python37_64\\lib\\xml\\parsers\\expat.py',
   'PYMODULE'),
  ('plistlib',
   'C:\\Program Files (x86)\\Microsoft Visual '
   'Studio\\Shared\\Python37_64\\lib\\plistlib.py',
   'PYMODULE'),
  ('platform',
   'C:\\Program Files (x86)\\Microsoft Visual '
   'Studio\\Shared\\Python37_64\\lib\\platform.py',
   'PYMODULE'),
  ('token',
   'C:\\Program Files (x86)\\Microsoft Visual '
   'Studio\\Shared\\Python37_64\\lib\\token.py',
   'PYMODULE'),
  ('tokenize',
   'C:\\Program Files (x86)\\Microsoft Visual '
   'Studio\\Shared\\Python37_64\\lib\\tokenize.py',
   'PYMODULE'),
  ('urllib.parse',
   'C:\\Program Files (x86)\\Microsoft Visual '
   'Studio\\Shared\\Python37_64\\lib\\urllib\\parse.py',
   'PYMODULE'),
  ('tempfile',
   'C:\\Program Files (x86)\\Microsoft Visual '
   'Studio\\Shared\\Python37_64\\lib\\tempfile.py',
   'PYMODULE'),
  ('tty',
   'C:\\Program Files (x86)\\Microsoft Visual '
   'Studio\\Shared\\Python37_64\\lib\\tty.py',
   'PYMODULE'),
  ('pydoc_data',
   'C:\\Program Files (x86)\\Microsoft Visual '
   'Studio\\Shared\\Python37_64\\lib\\pydoc_data\\__init__.py',
   'PYMODULE'),
  ('pydoc_data.topics',
   'C:\\Program Files (x86)\\Microsoft Visual '
   'Studio\\Shared\\Python37_64\\lib\\pydoc_data\\topics.py',
   'PYMODULE'),
  ('html.entities',
   'C:\\Program Files (x86)\\Microsoft Visual '
   'Studio\\Shared\\Python37_64\\lib\\html\\entities.py',
   'PYMODULE'),
  ('html',
   'C:\\Program Files (x86)\\Microsoft Visual '
   'Studio\\Shared\\Python37_64\\lib\\html\\__init__.py',
   'PYMODULE'),
  ('ssl',
   'C:\\Program Files (x86)\\Microsoft Visual '
   'Studio\\Shared\\Python37_64\\lib\\ssl.py',
   'PYMODULE'),
  ('http.client',
   'C:\\Program Files (x86)\\Microsoft Visual '
   'Studio\\Shared\\Python37_64\\lib\\http\\client.py',
   'PYMODULE'),
  ('mimetypes',
   'C:\\Program Files (x86)\\Microsoft Visual '
   'Studio\\Shared\\Python37_64\\lib\\mimetypes.py',
   'PYMODULE'),
  ('socketserver',
   'C:\\Program Files (x86)\\Microsoft Visual '
   'Studio\\Shared\\Python37_64\\lib\\socketserver.py',
   'PYMODULE'),
  ('http',
   'C:\\Program Files (x86)\\Microsoft Visual '
   'Studio\\Shared\\Python37_64\\lib\\http\\__init__.py',
   'PYMODULE'),
  ('http.server',
   'C:\\Program Files (x86)\\Microsoft Visual '
   'Studio\\Shared\\Python37_64\\lib\\http\\server.py',
   'PYMODULE'),
  ('optparse',
   'C:\\Program Files (x86)\\Microsoft Visual '
   'Studio\\Shared\\Python37_64\\lib\\optparse.py',
   'PYMODULE'),
  ('uu',
   'C:\\Program Files (x86)\\Microsoft Visual '
   'Studio\\Shared\\Python37_64\\lib\\uu.py',
   'PYMODULE'),
  ('quopri',
   'C:\\Program Files (x86)\\Microsoft Visual '
   'Studio\\Shared\\Python37_64\\lib\\quopri.py',
   'PYMODULE'),
  ('email.feedparser',
   'C:\\Program Files (x86)\\Microsoft Visual '
   'Studio\\Shared\\Python37_64\\lib\\email\\feedparser.py',
   'PYMODULE'),
  ('email.parser',
   'C:\\Program Files (x86)\\Microsoft Visual '
   'Studio\\Shared\\Python37_64\\lib\\email\\parser.py',
   'PYMODULE'),
  ('email',
   'C:\\Program Files (x86)\\Microsoft Visual '
   'Studio\\Shared\\Python37_64\\lib\\email\\__init__.py',
   'PYMODULE'),
  ('calendar',
   'C:\\Program Files (x86)\\Microsoft Visual '
   'Studio\\Shared\\Python37_64\\lib\\calendar.py',
   'PYMODULE'),
  ('email._parseaddr',
   'C:\\Program Files (x86)\\Microsoft Visual '
   'Studio\\Shared\\Python37_64\\lib\\email\\_parseaddr.py',
   'PYMODULE'),
  ('email.utils',
   'C:\\Program Files (x86)\\Microsoft Visual '
   'Studio\\Shared\\Python37_64\\lib\\email\\utils.py',
   'PYMODULE'),
  ('email.errors',
   'C:\\Program Files (x86)\\Microsoft Visual '
   'Studio\\Shared\\Python37_64\\lib\\email\\errors.py',
   'PYMODULE'),
  ('email.header',
   'C:\\Program Files (x86)\\Microsoft Visual '
   'Studio\\Shared\\Python37_64\\lib\\email\\header.py',
   'PYMODULE'),
  ('email._policybase',
   'C:\\Program Files (x86)\\Microsoft Visual '
   'Studio\\Shared\\Python37_64\\lib\\email\\_policybase.py',
   'PYMODULE'),
  ('email.base64mime',
   'C:\\Program Files (x86)\\Microsoft Visual '
   'Studio\\Shared\\Python37_64\\lib\\email\\base64mime.py',
   'PYMODULE'),
  ('email.encoders',
   'C:\\Program Files (x86)\\Microsoft Visual '
   'Studio\\Shared\\Python37_64\\lib\\email\\encoders.py',
   'PYMODULE'),
  ('email.charset',
   'C:\\Program Files (x86)\\Microsoft Visual '
   'Studio\\Shared\\Python37_64\\lib\\email\\charset.py',
   'PYMODULE'),
  ('base64',
   'C:\\Program Files (x86)\\Microsoft Visual '
   'Studio\\Shared\\Python37_64\\lib\\base64.py',
   'PYMODULE'),
  ('email._encoded_words',
   'C:\\Program Files (x86)\\Microsoft Visual '
   'Studio\\Shared\\Python37_64\\lib\\email\\_encoded_words.py',
   'PYMODULE'),
  ('hashlib',
   'C:\\Program Files (x86)\\Microsoft Visual '
   'Studio\\Shared\\Python37_64\\lib\\hashlib.py',
   'PYMODULE'),
  ('bisect',
   'C:\\Program Files (x86)\\Microsoft Visual '
   'Studio\\Shared\\Python37_64\\lib\\bisect.py',
   'PYMODULE'),
  ('random',
   'C:\\Program Files (x86)\\Microsoft Visual '
   'Studio\\Shared\\Python37_64\\lib\\random.py',
   'PYMODULE'),
  ('email.generator',
   'C:\\Program Files (x86)\\Microsoft Visual '
   'Studio\\Shared\\Python37_64\\lib\\email\\generator.py',
   'PYMODULE'),
  ('email.iterators',
   'C:\\Program Files (x86)\\Microsoft Visual '
   'Studio\\Shared\\Python37_64\\lib\\email\\iterators.py',
   'PYMODULE'),
  ('urllib',
   'C:\\Program Files (x86)\\Microsoft Visual '
   'Studio\\Shared\\Python37_64\\lib\\urllib\\__init__.py',
   'PYMODULE'),
  ('email._header_value_parser',
   'C:\\Program Files (x86)\\Microsoft Visual '
   'Studio\\Shared\\Python37_64\\lib\\email\\_header_value_parser.py',
   'PYMODULE'),
  ('email.headerregistry',
   'C:\\Program Files (x86)\\Microsoft Visual '
   'Studio\\Shared\\Python37_64\\lib\\email\\headerregistry.py',
   'PYMODULE'),
  ('email.quoprimime',
   'C:\\Program Files (x86)\\Microsoft Visual '
   'Studio\\Shared\\Python37_64\\lib\\email\\quoprimime.py',
   'PYMODULE'),
  ('email.contentmanager',
   'C:\\Program Files (x86)\\Microsoft Visual '
   'Studio\\Shared\\Python37_64\\lib\\email\\contentmanager.py',
   'PYMODULE'),
  ('email.policy',
   'C:\\Program Files (x86)\\Microsoft Visual '
   'Studio\\Shared\\Python37_64\\lib\\email\\policy.py',
   'PYMODULE'),
  ('email.message',
   'C:\\Program Files (x86)\\Microsoft Visual '
   'Studio\\Shared\\Python37_64\\lib\\email\\message.py',
   'PYMODULE'),
  ('bz2',
   'C:\\Program Files (x86)\\Microsoft Visual '
   'Studio\\Shared\\Python37_64\\lib\\bz2.py',
   'PYMODULE'),
  ('lzma',
   'C:\\Program Files (x86)\\Microsoft Visual '
   'Studio\\Shared\\Python37_64\\lib\\lzma.py',
   'PYMODULE'),
  ('_compression',
   'C:\\Program Files (x86)\\Microsoft Visual '
   'Studio\\Shared\\Python37_64\\lib\\_compression.py',
   'PYMODULE'),
  ('gzip',
   'C:\\Program Files (x86)\\Microsoft Visual '
   'Studio\\Shared\\Python37_64\\lib\\gzip.py',
   'PYMODULE'),
  ('tarfile',
   'C:\\Program Files (x86)\\Microsoft Visual '
   'Studio\\Shared\\Python37_64\\lib\\tarfile.py',
   'PYMODULE'),
  ('py_compile',
   'C:\\Program Files (x86)\\Microsoft Visual '
   'Studio\\Shared\\Python37_64\\lib\\py_compile.py',
   'PYMODULE'),
  ('zipfile',
   'C:\\Program Files (x86)\\Microsoft Visual '
   'Studio\\Shared\\Python37_64\\lib\\zipfile.py',
   'PYMODULE'),
  ('shutil',
   'C:\\Program Files (x86)\\Microsoft Visual '
   'Studio\\Shared\\Python37_64\\lib\\shutil.py',
   'PYMODULE'),
  ('socket',
   'C:\\Program Files (x86)\\Microsoft Visual '
   'Studio\\Shared\\Python37_64\\lib\\socket.py',
   'PYMODULE'),
  ('webbrowser',
   'C:\\Program Files (x86)\\Microsoft Visual '
   'Studio\\Shared\\Python37_64\\lib\\webbrowser.py',
   'PYMODULE'),
  ('pydoc',
   'C:\\Program Files (x86)\\Microsoft Visual '
   'Studio\\Shared\\Python37_64\\lib\\pydoc.py',
   'PYMODULE'),
  ('getopt',
   'C:\\Program Files (x86)\\Microsoft Visual '
   'Studio\\Shared\\Python37_64\\lib\\getopt.py',
   'PYMODULE'),
  ('pdb',
   'C:\\Program Files (x86)\\Microsoft Visual '
   'Studio\\Shared\\Python37_64\\lib\\pdb.py',
   'PYMODULE'),
  ('unittest.util',
   'C:\\Program Files (x86)\\Microsoft Visual '
   'Studio\\Shared\\Python37_64\\lib\\unittest\\util.py',
   'PYMODULE'),
  ('unittest.result',
   'C:\\Program Files (x86)\\Microsoft Visual '
   'Studio\\Shared\\Python37_64\\lib\\unittest\\result.py',
   'PYMODULE'),
  ('string',
   'C:\\Program Files (x86)\\Microsoft Visual '
   'Studio\\Shared\\Python37_64\\lib\\string.py',
   'PYMODULE'),
  ('logging',
   'C:\\Program Files (x86)\\Microsoft Visual '
   'Studio\\Shared\\Python37_64\\lib\\logging\\__init__.py',
   'PYMODULE'),
  ('unittest.case',
   'C:\\Program Files (x86)\\Microsoft Visual '
   'Studio\\Shared\\Python37_64\\lib\\unittest\\case.py',
   'PYMODULE'),
  ('unittest.suite',
   'C:\\Program Files (x86)\\Microsoft Visual '
   'Studio\\Shared\\Python37_64\\lib\\unittest\\suite.py',
   'PYMODULE'),
  ('unittest.loader',
   'C:\\Program Files (x86)\\Microsoft Visual '
   'Studio\\Shared\\Python37_64\\lib\\unittest\\loader.py',
   'PYMODULE'),
  ('unittest.runner',
   'C:\\Program Files (x86)\\Microsoft Visual '
   'Studio\\Shared\\Python37_64\\lib\\unittest\\runner.py',
   'PYMODULE'),
  ('unittest.main',
   'C:\\Program Files (x86)\\Microsoft Visual '
   'Studio\\Shared\\Python37_64\\lib\\unittest\\main.py',
   'PYMODULE'),
  ('unittest.signals',
   'C:\\Program Files (x86)\\Microsoft Visual '
   'Studio\\Shared\\Python37_64\\lib\\unittest\\signals.py',
   'PYMODULE'),
  ('unittest',
   'C:\\Program Files (x86)\\Microsoft Visual '
   'Studio\\Shared\\Python37_64\\lib\\unittest\\__init__.py',
   'PYMODULE'),
  ('doctest',
   'C:\\Program Files (x86)\\Microsoft Visual '
   'Studio\\Shared\\Python37_64\\lib\\doctest.py',
   'PYMODULE'),
  ('stat',
   'C:\\Program Files (x86)\\Microsoft Visual '
   'Studio\\Shared\\Python37_64\\lib\\stat.py',
   'PYMODULE'),
  ('genericpath',
   'C:\\Program Files (x86)\\Microsoft Visual '
   'Studio\\Shared\\Python37_64\\lib\\genericpath.py',
   'PYMODULE'),
  ('posixpath',
   'C:\\Program Files (x86)\\Microsoft Visual '
   'Studio\\Shared\\Python37_64\\lib\\posixpath.py',
   'PYMODULE'),
  ('signal',
   'C:\\Program Files (x86)\\Microsoft Visual '
   'Studio\\Shared\\Python37_64\\lib\\signal.py',
   'PYMODULE'),
  ('contextlib',
   'C:\\Program Files (x86)\\Microsoft Visual '
   'Studio\\Shared\\Python37_64\\lib\\contextlib.py',
   'PYMODULE'),
  ('_threading_local',
   'C:\\Program Files (x86)\\Microsoft Visual '
   'Studio\\Shared\\Python37_64\\lib\\_threading_local.py',
   'PYMODULE'),
  ('threading',
   'C:\\Program Files (x86)\\Microsoft Visual '
   'Studio\\Shared\\Python37_64\\lib\\threading.py',
   'PYMODULE'),
  ('selectors',
   'C:\\Program Files (x86)\\Microsoft Visual '
   'Studio\\Shared\\Python37_64\\lib\\selectors.py',
   'PYMODULE'),
  ('subprocess',
   'C:\\Program Files (x86)\\Microsoft Visual '
   'Studio\\Shared\\Python37_64\\lib\\subprocess.py',
   'PYMODULE'),
  ('os',
   'C:\\Program Files (x86)\\Microsoft Visual '
   'Studio\\Shared\\Python37_64\\lib\\os.py',
   'PYMODULE'),
  ('gettext',
   'C:\\Program Files (x86)\\Microsoft Visual '
   'Studio\\Shared\\Python37_64\\lib\\gettext.py',
   'PYMODULE'),
  ('copy',
   'C:\\Program Files (x86)\\Microsoft Visual '
   'Studio\\Shared\\Python37_64\\lib\\copy.py',
   'PYMODULE'),
  ('textwrap',
   'C:\\Program Files (x86)\\Microsoft Visual '
   'Studio\\Shared\\Python37_64\\lib\\textwrap.py',
   'PYMODULE'),
  ('argparse',
   'C:\\Program Files (x86)\\Microsoft Visual '
   'Studio\\Shared\\Python37_64\\lib\\argparse.py',
   'PYMODULE'),
  ('pprint',
   'C:\\Program Files (x86)\\Microsoft Visual '
   'Studio\\Shared\\Python37_64\\lib\\pprint.py',
   'PYMODULE'),
  ('pickle',
   'C:\\Program Files (x86)\\Microsoft Visual '
   'Studio\\Shared\\Python37_64\\lib\\pickle.py',
   'PYMODULE'),
  ('tracemalloc',
   'C:\\Program Files (x86)\\Microsoft Visual '
   'Studio\\Shared\\Python37_64\\lib\\tracemalloc.py',
   'PYMODULE'),
  ('PyQt5',
   'c:\\users\\quinlin.riggs\\source\\repos\\install_env\\lib\\site-packages\\PyQt5\\__init__.py',
   'PYMODULE'),
  ('gui_app_class',
   'C:\\Users\\quinlin.riggs\\source\\repos\\product_crypt\\product_crypt\\src\\gui_app_class.py',
   'PYMODULE'),
  ('gui_workers_class',
   'C:\\Users\\quinlin.riggs\\source\\repos\\product_crypt\\product_crypt\\src\\gui_workers_class.py',
   'PYMODULE'),
  ('core',
   'C:\\Users\\quinlin.riggs\\source\\repos\\product_crypt\\product_crypt\\src\\core.py',
   'PYMODULE'),
  ('crypto_helpers',
   'C:\\Users\\quinlin.riggs\\source\\repos\\product_crypt\\product_crypt\\src\\crypto_helpers.py',
   'PYMODULE'),
  ('Crypto.Cipher.DES3',
   'c:\\users\\quinlin.riggs\\source\\repos\\install_env\\lib\\site-packages\\Crypto\\Cipher\\DES3.py',
   'PYMODULE'),
  ('Crypto.Util._raw_api',
   'c:\\users\\quinlin.riggs\\source\\repos\\install_env\\lib\\site-packages\\Crypto\\Util\\_raw_api.py',
   'PYMODULE'),
  ('Crypto.Util',
   'c:\\users\\quinlin.riggs\\source\\repos\\install_env\\lib\\site-packages\\Crypto\\Util\\__init__.py',
   'PYMODULE'),
  ('Crypto.Util._cpu_features',
   'c:\\users\\quinlin.riggs\\source\\repos\\install_env\\lib\\site-packages\\Crypto\\Util\\_cpu_features.py',
   'PYMODULE'),
  ('Crypto',
   'c:\\users\\quinlin.riggs\\source\\repos\\install_env\\lib\\site-packages\\Crypto\\__init__.py',
   'PYMODULE'),
  ('ctypes.util',
   'C:\\Program Files (x86)\\Microsoft Visual '
   'Studio\\Shared\\Python37_64\\lib\\ctypes\\util.py',
   'PYMODULE'),
  ('ctypes._aix',
   'C:\\Program Files (x86)\\Microsoft Visual '
   'Studio\\Shared\\Python37_64\\lib\\ctypes\\_aix.py',
   'PYMODULE'),
  ('ctypes.macholib.dyld',
   'C:\\Program Files (x86)\\Microsoft Visual '
   'Studio\\Shared\\Python37_64\\lib\\ctypes\\macholib\\dyld.py',
   'PYMODULE'),
  ('ctypes.macholib',
   'C:\\Program Files (x86)\\Microsoft Visual '
   'Studio\\Shared\\Python37_64\\lib\\ctypes\\macholib\\__init__.py',
   'PYMODULE'),
  ('ctypes.macholib.dylib',
   'C:\\Program Files (x86)\\Microsoft Visual '
   'Studio\\Shared\\Python37_64\\lib\\ctypes\\macholib\\dylib.py',
   'PYMODULE'),
  ('ctypes.macholib.framework',
   'C:\\Program Files (x86)\\Microsoft Visual '
   'Studio\\Shared\\Python37_64\\lib\\ctypes\\macholib\\framework.py',
   'PYMODULE'),
  ('ctypes',
   'C:\\Program Files (x86)\\Microsoft Visual '
   'Studio\\Shared\\Python37_64\\lib\\ctypes\\__init__.py',
   'PYMODULE'),
  ('ctypes._endian',
   'C:\\Program Files (x86)\\Microsoft Visual '
   'Studio\\Shared\\Python37_64\\lib\\ctypes\\_endian.py',
   'PYMODULE'),
  ('imp',
   'C:\\Program Files (x86)\\Microsoft Visual '
   'Studio\\Shared\\Python37_64\\lib\\imp.py',
   'PYMODULE'),
  ('Crypto.Util._file_system',
   'c:\\users\\quinlin.riggs\\source\\repos\\install_env\\lib\\site-packages\\Crypto\\Util\\_file_system.py',
   'PYMODULE'),
  ('Crypto.Util.py3compat',
   'c:\\users\\quinlin.riggs\\source\\repos\\install_env\\lib\\site-packages\\Crypto\\Util\\py3compat.py',
   'PYMODULE'),
  ('Crypto.Cipher.DES',
   'c:\\users\\quinlin.riggs\\source\\repos\\install_env\\lib\\site-packages\\Crypto\\Cipher\\DES.py',
   'PYMODULE'),
  ('Crypto.Cipher.CAST',
   'c:\\users\\quinlin.riggs\\source\\repos\\install_env\\lib\\site-packages\\Crypto\\Cipher\\CAST.py',
   'PYMODULE'),
  ('Crypto.Cipher.Blowfish',
   'c:\\users\\quinlin.riggs\\source\\repos\\install_env\\lib\\site-packages\\Crypto\\Cipher\\Blowfish.py',
   'PYMODULE'),
  ('Crypto.Cipher.ARC4',
   'c:\\users\\quinlin.riggs\\source\\repos\\install_env\\lib\\site-packages\\Crypto\\Cipher\\ARC4.py',
   'PYMODULE'),
  ('Crypto.Cipher.ARC2',
   'c:\\users\\quinlin.riggs\\source\\repos\\install_env\\lib\\site-packages\\Crypto\\Cipher\\ARC2.py',
   'PYMODULE'),
  ('path_helpers',
   'C:\\Users\\quinlin.riggs\\source\\repos\\product_crypt\\product_crypt\\src\\path_helpers.py',
   'PYMODULE'),
  ('Crypto.Cipher.AES',
   'c:\\users\\quinlin.riggs\\source\\repos\\install_env\\lib\\site-packages\\Crypto\\Cipher\\AES.py',
   'PYMODULE'),
  ('Crypto.Random',
   'c:\\users\\quinlin.riggs\\source\\repos\\install_env\\lib\\site-packages\\Crypto\\Random\\__init__.py',
   'PYMODULE'),
  ('Crypto.Cipher',
   'c:\\users\\quinlin.riggs\\source\\repos\\install_env\\lib\\site-packages\\Crypto\\Cipher\\__init__.py',
   'PYMODULE'),
  ('Crypto.Cipher._mode_ocb',
   'c:\\users\\quinlin.riggs\\source\\repos\\install_env\\lib\\site-packages\\Crypto\\Cipher\\_mode_ocb.py',
   'PYMODULE'),
  ('Crypto.Hash.BLAKE2s',
   'c:\\users\\quinlin.riggs\\source\\repos\\install_env\\lib\\site-packages\\Crypto\\Hash\\BLAKE2s.py',
   'PYMODULE'),
  ('Crypto.Hash',
   'c:\\users\\quinlin.riggs\\source\\repos\\install_env\\lib\\site-packages\\Crypto\\Hash\\__init__.py',
   'PYMODULE'),
  ('Crypto.Hash.HMAC',
   'c:\\users\\quinlin.riggs\\source\\repos\\install_env\\lib\\site-packages\\Crypto\\Hash\\HMAC.py',
   'PYMODULE'),
  ('Crypto.Hash.MD5',
   'c:\\users\\quinlin.riggs\\source\\repos\\install_env\\lib\\site-packages\\Crypto\\Hash\\MD5.py',
   'PYMODULE'),
  ('Crypto.Hash.SHA256',
   'c:\\users\\quinlin.riggs\\source\\repos\\install_env\\lib\\site-packages\\Crypto\\Hash\\SHA256.py',
   'PYMODULE'),
  ('Crypto.Hash.SHA1',
   'c:\\users\\quinlin.riggs\\source\\repos\\install_env\\lib\\site-packages\\Crypto\\Hash\\SHA1.py',
   'PYMODULE'),
  ('Crypto.Hash.CMAC',
   'c:\\users\\quinlin.riggs\\source\\repos\\install_env\\lib\\site-packages\\Crypto\\Hash\\CMAC.py',
   'PYMODULE'),
  ('Crypto.Util.strxor',
   'c:\\users\\quinlin.riggs\\source\\repos\\install_env\\lib\\site-packages\\Crypto\\Util\\strxor.py',
   'PYMODULE'),
  ('Crypto.Util.number',
   'c:\\users\\quinlin.riggs\\source\\repos\\install_env\\lib\\site-packages\\Crypto\\Util\\number.py',
   'PYMODULE'),
  ('Crypto.Cipher._mode_gcm',
   'c:\\users\\quinlin.riggs\\source\\repos\\install_env\\lib\\site-packages\\Crypto\\Cipher\\_mode_gcm.py',
   'PYMODULE'),
  ('Crypto.Cipher._mode_siv',
   'c:\\users\\quinlin.riggs\\source\\repos\\install_env\\lib\\site-packages\\Crypto\\Cipher\\_mode_siv.py',
   'PYMODULE'),
  ('Crypto.Protocol.KDF',
   'c:\\users\\quinlin.riggs\\source\\repos\\install_env\\lib\\site-packages\\Crypto\\Protocol\\KDF.py',
   'PYMODULE'),
  ('Crypto.Protocol',
   'c:\\users\\quinlin.riggs\\source\\repos\\install_env\\lib\\site-packages\\Crypto\\Protocol\\__init__.py',
   'PYMODULE'),
  ('Crypto.Cipher._EKSBlowfish',
   'c:\\users\\quinlin.riggs\\source\\repos\\install_env\\lib\\site-packages\\Crypto\\Cipher\\_EKSBlowfish.py',
   'PYMODULE'),
  ('Crypto.Cipher._mode_eax',
   'c:\\users\\quinlin.riggs\\source\\repos\\install_env\\lib\\site-packages\\Crypto\\Cipher\\_mode_eax.py',
   'PYMODULE'),
  ('Crypto.Cipher._mode_ccm',
   'c:\\users\\quinlin.riggs\\source\\repos\\install_env\\lib\\site-packages\\Crypto\\Cipher\\_mode_ccm.py',
   'PYMODULE'),
  ('Crypto.Cipher._mode_openpgp',
   'c:\\users\\quinlin.riggs\\source\\repos\\install_env\\lib\\site-packages\\Crypto\\Cipher\\_mode_openpgp.py',
   'PYMODULE'),
  ('Crypto.Cipher._mode_ctr',
   'c:\\users\\quinlin.riggs\\source\\repos\\install_env\\lib\\site-packages\\Crypto\\Cipher\\_mode_ctr.py',
   'PYMODULE'),
  ('Crypto.Cipher._mode_ofb',
   'c:\\users\\quinlin.riggs\\source\\repos\\install_env\\lib\\site-packages\\Crypto\\Cipher\\_mode_ofb.py',
   'PYMODULE'),
  ('Crypto.Cipher._mode_cfb',
   'c:\\users\\quinlin.riggs\\source\\repos\\install_env\\lib\\site-packages\\Crypto\\Cipher\\_mode_cfb.py',
   'PYMODULE'),
  ('Crypto.Cipher._mode_cbc',
   'c:\\users\\quinlin.riggs\\source\\repos\\install_env\\lib\\site-packages\\Crypto\\Cipher\\_mode_cbc.py',
   'PYMODULE'),
  ('Crypto.Cipher._mode_ecb',
   'c:\\users\\quinlin.riggs\\source\\repos\\install_env\\lib\\site-packages\\Crypto\\Cipher\\_mode_ecb.py',
   'PYMODULE'),
  ('pathlib',
   'C:\\Program Files (x86)\\Microsoft Visual '
   'Studio\\Shared\\Python37_64\\lib\\pathlib.py',
   'PYMODULE'),
  ('xml.etree.ElementTree',
   'C:\\Program Files (x86)\\Microsoft Visual '
   'Studio\\Shared\\Python37_64\\lib\\xml\\etree\\ElementTree.py',
   'PYMODULE'),
  ('xml.etree.cElementTree',
   'C:\\Program Files (x86)\\Microsoft Visual '
   'Studio\\Shared\\Python37_64\\lib\\xml\\etree\\cElementTree.py',
   'PYMODULE'),
  ('xml.etree.ElementInclude',
   'C:\\Program Files (x86)\\Microsoft Visual '
   'Studio\\Shared\\Python37_64\\lib\\xml\\etree\\ElementInclude.py',
   'PYMODULE'),
  ('xml.etree.ElementPath',
   'C:\\Program Files (x86)\\Microsoft Visual '
   'Studio\\Shared\\Python37_64\\lib\\xml\\etree\\ElementPath.py',
   'PYMODULE'),
  ('xml.etree',
   'C:\\Program Files (x86)\\Microsoft Visual '
   'Studio\\Shared\\Python37_64\\lib\\xml\\etree\\__init__.py',
   'PYMODULE'),
  ('gui_main_window_class',
   'C:\\Users\\quinlin.riggs\\source\\repos\\product_crypt\\product_crypt\\src\\gui_main_window_class.py',
   'PYMODULE')])
